{
  "_data_files": [
    {
      "filename": "dataset.arrow"
    }
  ],
  "_fingerprint": "3ee0efc211ef154a",
  "_format_columns": null,
  "_format_kwargs": {},
  "_format_type": null,
  "_indexes": {},
  "_output_all_columns": false,
  "_split": null
}