coll_lecture	coll_session	subj	text_id	augmented	sentence	final	final_without6
ethics	2	0	1	Über die WEKA-Übung:	Über die WEKA-Übung:	3	3
ethics	2	0	1	Weka an sich ist intuitiv, so dass ich die Anwendung gut verstehen konnte.	Weka an sich ist intuitiv, die Anwendung konnte ich somit gut verstehen.	4	4
ethics	2	0	1	Tatsächlich hatte ich einige Schwierigkeiten mit der Transformation meiner optimierten Ordnerstruktur für ein geeignetes (unbiased) Trainingsset in das .arff-Format (zumal das entsprechende Python-Skript auf Französisch ist und ich kein Französisch kann).	Tatsächlich hatte ich einige Schwierigkeiten mit der Transformation meiner optimierten Ordnerstruktur für ein geeignetes (unbiased) Trainingset in das .arff-Format (v.a., da der entsprechende Python-Skript auf französisch ist und ich kein Französisch kann).	2	2
ethics	2	0	1	Nach einigem Training mit Hilfe von Google und einem ML-Learning-Studenten, der sich bereit erklärt hat, mir zu helfen, konnte ich die Aufgabe dann ohne jegliche Programmierkenntnisse lösen.	Nach einiger Einarbeitung mit Hilfe von Google und einem ML-Learning-Studenten, der sich bereit erklärt hat, mir zu helfen, konnte ich die Aufgabe dann auch ohne vorherige Programmierkenntnisse lösen.	3	3
ethics	2	0	2	Ich versuchte, die ersten beiden Aufgaben zu lösen, was am 24. und 25. April geschah.	Ich habe versucht, die ersten beiden Aufgaben zu lösen, das war am 24. und 25. April.	3	3
ethics	2	0	2	Ich habe mich mit ethischen Ansätzen vertraut gemacht, die bei der Verwendung von Klassifikatoren zur Entscheidungsfindung berücksichtigt werden sollten	Ich habe mich mit ethischen Ansätzen vertraut gemacht, die berücksichtigt werden sollten, wenn wir Klassifikatoren zur Entscheidungsfindung einsetzen	3	3
ethics	2	0	3	Ich kenne Weka bereits und es war einfach, die Aufgabe für mich zu bewältigen, ich habe sogar mein Wissen mit Teamkollegen in der Breakout-Session geteilt, aber wenn es darum geht, zu diskutieren, warum dieser Lebenslauf abgelehnt wurde oder nicht, sind Argumentation und Brainstorming schwierig.	Ich kenne Weka bereits und es war einfach, mit der Aufgabe für mich umzugehen, sogar habe ich mein Wissen mit den Teamkollegen in der Breakout-Session geteilt, aber wenn es um die Diskussion geht, warum dieser Lebenslauf abgelehnt wurde oder nicht, sind Argumentation und Brainstorming schwierig.	6	3
ethics	2	0	3	Vielleicht ist die Hauptursache, dass ich mich zu sehr auf technische Dinge konzentriere und mich in diesen Fächern verbessern muss.	Vielleicht ist die Hauptursache, dass ich mich zu sehr auf technische Dinge konzentriere und mich in diesen Fächern verbessern muss.	3	3
ethics	2	0	4	Schöne Diskussion, vor allem die unterschiedlichen Perspektiven aufgrund der heterogenen Gruppe.	Schöne Diskussion, vor allem die unterschiedlichen Perspektiven aufgrund der heterogenen Gruppe.	4	4
ethics	2	0	5	In der Diskussion mit einer kleinen Gruppe nach der Präsentation ging es um den Bottom-up-Ansatz.	In der Diskussion mit einer kleinen Gruppe nach der Präsentation ging es um den Bottom-up-Ansatz.	3	3
ethics	2	0	5	Ich denke, die ethischen Fragen müssen auf verschiedenen Ebenen angegangen werden, weil wir keine subjektiven Definitionen von Ethik haben, mit denen wir als Menschen alle einverstanden sind	Ich denke, dass die ethischen Probleme auf verschiedenen Ebenen angegangen werden müssen, da wir keine subjektiven Definitionen von Ethik haben, denen wir alle als Menschen zustimmen	3	3
ethics	2	0	6	In der Gruppe wird jetzt mehr gelesen und recherchiert	In der Gruppe ist mehr jetzt Lesen und recherchieren angesagt	3	3
ethics	2	0	7	Ich denke zurück an die Konzeption des KI-Projekts und die konkrete Aufgabe, mit meinen Kommilitonen die notwendigen Informationen für die Ideenskizze zusammenzutragen.	Ich denke zurück an die Konzeption des KI-Projekts und die konkrete Aufgabe, die erforderlichen Informationen für die Ideenskizze zusammenzustellen, mit meinen Kommilitonen.	3	3
ethics	2	0	7	Wir definierten die Technologie, mit der wir uns beschäftigen wollten, wir definierten den Umfang des Projekts und das Ergebnis.	Wir definierten die Technik, mit der wir uns beschäftigen wollten, wir definierten den Umfang des Projekts und das Ergebnis.	3	3
ethics	2	0	7	All diese Entscheidungen wurden im Konsens und aus der Notwendigkeit heraus getroffen.	All diese Entscheidungen wurden einvernehmlich und aus der Notwendigkeit heraus getroffen.	3	3
ethics	2	0	8	Ich weiß nicht wirklich, was ich hier.... schreiben soll.	Ich weiß nicht wirklich, was ich hier eintragen soll...	3	3
ethics	2	0	9	Ich war in einer großen Gruppe und habe mich nicht aktiv an der Diskussion beteiligt, obwohl ich mich für das heutige Thema interessiere.	Ich war in einer großen Gruppe und habe mich nicht aktiv an der Diskussion beteiligt, obwohl ich mich für das heutige Thema interessiere.	4	4
ethics	2	0	9	Ich hatte nicht das Gefühl, dass ich etwas zur Diskussion beitragen konnte.	Ich hatte nicht das Gefühl, einen Punkt zur Diskussion beitragen zu können.	2	2
ethics	2	0	10	Die Concept-Map-Gruppenarbeit hat gut funktioniert, offene Fragen wurden in der Gruppe diskutiert und erörtert.	Die Concept-Map Gruppenarbeit hat gut funktioniert, offene Fragen wurden innerhalb der besprochen und diskutiert.	4	4
ethics	2	0	10	Hier war es hilfreich, dass es eine konkrete Vorgabe gab.	Hier war hilfreich, dass es eine konkrete Anforderung gab.	4	4
ethics	2	0	11	Die Diskussionen mit den verschiedenen Gruppen waren informativ und beleuchteten die aufgeworfenen Fragen aus unterschiedlichen Perspektiven	Die Diskussionen mit den verschiedenen Gruppen waren informativ und beleuchteten die angesprochenen Probleme aus verschiedenen Blickwinkeln	4	4
ethics	2	0	12	Die Annäherung an unsere spezifische Forschungsfrage war eine kleine Herausforderung, da unser Thema sehr breit gefächert ist und verschiedene Ebenen der Spezifizierung möglich sind.	Eine kleine Herausforderung war die Annäherung an unsere konkrete Forschungsfrage, da unser Thema sehr umfassend ist und verschiedene Level der Spezifizierung möglich sind.	2	2
ethics	2	0	12	Indem wir einen technischen Bottom-up-Ansatz mit einem eher theoretischen Top-down-Ansatz kontrastierten, entschieden wir uns schließlich für einen Bottom-up-Ansatz, der jedoch Top-down-Elemente integriert.	Im Kontrast zwischen einem technischen Bottom-Up Ansatz und einem eher theoretischen Top-Down Ansatz entschieden wir uns schließlich für einen Bottom-Up Ansatz, der jedoch Top-Down-Elemente integriert.	3	3
ethics	2	0	12	Innerhalb unserer Gruppe (Ethik-Rechtler, Gruppe 3) trafen wir uns zusätzlich im Schnitt einmal pro Woche online, um Forschungsergebnisse auszutauschen und nächste Projektschritte zu planen.	Im Rahmen unserer Gruppe (Ethics-Legal Governors, Group 3) haben wir uns durchschnittlich einmal pro Woche zusätzlich online verabredet, um Recherche-Ergebnisse zu teilen und die nächsten Projektschritte zu planen.	3	3
ethics	2	0	12	Prof. unterstützte uns mit einer Einführung in HOL/Isabelle, die für die Problemlösung unserer Aufgabe - dem 'Einstellungsdilemma' mit Verweis auf verschiedene Rechtsartikel aus dem KI-Gesetzesvorschlag, der EU-Charta und der GDPR - wichtig ist.	Prof. unterstütze uns mit einer Einführung in HOL/Isabelle, die für die Problemlösung unserer Aufgabenstellung - dem 'Hiring-Dilemma' mit Bezug auf verschiedene rechtliche Artikel aus dem AI Act Proposal, der EU Charta und dem GDPR - wichtig ist.	3	3
ethics	2	0	13	Leider kann ich das nicht beantworten bzw. habe ich keine konkreten Erfahrungen, die ich im Einzelfall präsentieren könnte.	Das kann ich leider nicht beantworten bzw. habe ich keine konkreten Erfahrungen, die ich im Einzelfall vorlegen kann.	2	2
ethics	2	0	14	Meine Gruppenmitglieder, mit Professor und Mentoren helfen mir sehr.	Meine Gruppenmitglieder, mit Professor und Mentoren helfen sehr.	3	3
ethics	2	0	14	Ich arbeite mit Logikey.	Ich arbeite mit Logikey.	3	3
ethics	2	0	14	Ich habe ein Mapping zum Thema Fake News gemacht.	Ich habe ein Mapping über Fake News gemacht.	3	3
ethics	2	0	14	Die Regierung und politisch beeinflusste Menschen nutzen das manchmal zu ihrem eigenen Vorteil.	Die Regierung und politisch beeinflusste Menschen nutzen das manchmal zu ihrem eigenen Vorteil.	3	3
ethics	2	1	1	Die Aufgabe war ein sehr guter Einstieg in ML im Allgemeinen, da WEKA durch die GUI sehr intuitiv ist.	Die Aufgabe war ein sehr guter Einstieg in ML generell, da WEKA durch das GUI sehr intuitiv ist.	5	5
ethics	2	1	1	Die Funktionalitäten sind sehr schön dargestellt und dienen als Einstieg.	Die Funktionalitäten sind schön übersichtlich dargestellt und dienen einer Einführung.	4	4
ethics	2	1	1	Meine anfänglichen Berührungsängste mit der Programmierung konnten abgeschwächt werden.	Meine initialen Berührungsängste mit dem Programmieren konnten abgeschwächt werden.	6	4
ethics	2	1	1	Das Gelernte war sehr hilfreich und hat mich noch neugieriger gemacht.	Das Gelernte war sehr hilfreich und hat mich noch neugieriger gemacht.	5	5
ethics	2	1	2	Als das Vertrauen in den Klassifikator neu war, wurde ich nicht zuversichtlicher, sondern eher vorsichtiger und kritischer, ich muss meine Fähigkeiten noch mehr verfeinern, um dieses Wissen in der Praxis anzuwenden, ich muss noch mehr lernen, wie ich es besser machen kann.	Als das Vertrauen in den Klassifikator neu war, bin ich nicht zuversichtlicher geworden, sondern eher vorsichtiger und kritischer, ich muss meine Fähigkeiten mehr verfeinern, um dieses Wissen in der Praxis anwenden zu können, ich muss mehr lernen, wie ich es besser machen kann.	6	2
ethics	2	1	3	Nach jeder Woche denke ich, dass es einfacher wird, die Diskussionen zu leiten und sich daran zu beteiligen, weil das Wissen das meiste Gewicht hat.	Nach jeder Woche glaube ich, dass es einfacher wird, die Diskussionen zu leiten und sich an ihnen zu beteiligen, denn Wissen hat das größte Gewicht.	4	4
ethics	2	1	3	Ich habe vor, mehr über Ethik und KI zu lesen, vor allem mehr aus einer sozialen und philosophischen Perspektive.	Ich habe vor, mehr über Ethik und KI zu lesen, vor allem mehr aus sozialer und philosophischer Perspektive.	3	3
ethics	2	1	4	Ich habe eine neue Perspektive auf das Thema gelernt.	Ich habe eine neue Perspektive auf das Thema gelernt.	3	3
ethics	2	1	5	Es ist neu zu lernen, wie man über ethische Probleme denkt und lernt. Ich werde es in meinem täglichen Leben anwenden, nicht nur in der Praxis, ich habe vor, mehr zu wissen und meine Werkzeuge zu verbessern, um effizientere Lösungen zu finden, es kommt auf den Fall an!	Es ist neu, zu lernen, wie man über ethische Probleme denkt und lernt, ich werde es in meinem täglichen Leben anwenden, nicht nur in der Praxis, ich plane, mehr zu wissen und meine Werkzeuge zu verbessern, um effizientere Lösungen zu bekommen, es hängt vom Fall ab!	3	3
ethics	2	1	6	vielleicht mehr Trennung der Themen	vielleicht mehr Trennung von Themen	3	3
ethics	2	1	7	Ich habe mehr über das spezifische Thema gelernt, das wir uns vorgenommen haben zu verstehen.	Ich lernte mehr über das spezifische Thema, das wir uns vorgenommen hatten, zu verstehen.	3	3
ethics	2	1	7	Der neuartigste Teil war die Hintergrundlektüre, die zur Ausarbeitung des Projekts erforderlich war, und die Diskussion über das Ergebnis und die Präsentation des Projekts, bei der ich in neue Technologien eingeführt wurde.	Am neuartigsten waren die erforderlichen Hintergrundlektüren, die für die Ausarbeitung des Projekts erforderlich waren, und die Diskussion über das Ergebnis und die Präsentation des Projekts, bei der ich in neue Technologien eingeführt wurde.	3	3
ethics	2	1	7	Die Technologie werde ich lernen zu nutzen, das Hintergrundwissen wird dafür notwendig sein.	Die Technologie werde ich anwenden lernen, das Hintergrundwissen wird dafür notwendig sein.	3	3
ethics	2	1	7	Ich fühle mich jetzt nicht sicherer, dass wir liefern und konkreter werden müssen.	Ich fühle mich nicht sicherer, da wir jetzt liefern und konkreter werden müssen.	2	2
ethics	2	1	7	Was verbessert werden könnte, ist die Kommunikation zwischen den Gruppen und den Kursorganisatoren, die mitteilen, was von einer bestimmten Aufgabe erwartet wird.	Was verbessert werden könnte, ist die Kommunikation zwischen den Gruppen und die Kommunikation der Kursorganisatoren, was von einer bestimmten Aufgabe erwartet wird.	6	2
ethics	2	1	8	Interessanter Diskussionsbeitrag.	Interessanter Diskussionsbeitrag.	4	4
ethics	2	1	9	Es ist schwer vorherzusagen, ob ich in der Lage sein werde, das heute Gelernte auf andere Aufgaben anzuwenden, aber ich habe eine neue Perspektive gelernt.	Es ist schwer vorherzusagen, ob ich das heute Gelernte auf andere Aufgaben anwenden kann, aber ich habe eine neue Perspektive gelernt.	6	3
ethics	2	1	10	Ja, ich habe einige Dinge gelernt, eigentlich zu jeder Woche zu jedem Thema.	Ja ich habe einiges gelernt, eigentlich zu jede Woche zu jedem Thema.	4	4
ethics	2	1	10	Einige Dinge sind mehr hängen geblieben, andere weniger, auch basierend auf meinem eigenen Interesse.	Einiges ist stärker hängen geblieben, anderes weniger, auch auf Grund des eignen Interesses.	6	3
ethics	2	1	11	Ich bin sicherer geworden, wenn ich abstrakte Theorien/Ideen in der Praxis anwenden muss.	Ich bin sicherer geworden, wenn ich abstrakte Theorien/Ideen in der Praxis anwenden muss	4	4
ethics	2	1	12	Bis zu diesem Zeitpunkt habe ich eine Menge neuer Dinge gelernt, die mich sehr begeistern, und viel gelesen - in dieser Hinsicht bin ich also selbstbewusster geworden.	Bis zu diesem Zeitpunkt habe ich viel neues gelernt, was mich sehr begeistert, und viel gelesen - in diesem Bezug bin ich also selbstbewusster geworden.	5	5
ethics	2	1	12	Das Gelernte hat einen starken Praxisbezug, da ich mich nach dem Studium in diese Richtung weiterentwickeln möchte.	Das Gelernte hat einen starken Praxisbezug, da ich mich nach dem Studium in diese Richtung weiterentwickeln möchte.	5	5
ethics	2	1	12	Beim nächsten Mal möchte ich selbstbewusster in der Kommunikation werden und das auch bei anderen anregen, denn dann hätten wir einiges an Zeit gespart.	Beim nächsten Mal möchte ich in der Kommunikation selbstsicherer werden und das auch bei den anderen ermutigen, da wir uns etwas Zeit gespart hätten.	6	3
ethics	2	1	13	Mir wurde klar, dass das Thema KI-Ethik sehr aktuell ist und nicht nur Aufmerksamkeit in Form von Diskussionen und Analysen braucht, da dies ein Teil des laufenden Prozesses ist, sondern wir brauchen auch eine Form des Handelns, damit auch eine niedrige Stufe der KI-Implementierung die ethische Frage berücksichtigt, bevor sie in einem realen Szenario umgesetzt wird.	Ich habe erkannt, dass das Thema Ethik der KI sehr aktuell ist und nicht nur Aufmerksamkeit in Form von Diskussionen und Analysen benötigt, da dieser Prozess ein Teil des laufenden Prozesses ist, sondern wir brauchen auch eine Form von Maßnahmen, damit auch eine niedrige Stufe der KI-Implementierung auch die ethische Problematik berücksichtigt, bevor sie in einem realen Szenario implementiert wird.	3	3
ethics	2	1	14	Ich war mir der Fake News bewusst, aber während ich viele Kritiken zu Fake News las, wurde mir klar, wie effektiv sie sein können und wie sie für politische Zwecke manipuliert werden können.	Ich war mir über Fake News bewusst, aber während ich viele Kritiken über Fake News las, wurde mir klar, wie wirkungsvoll sie sein können und wie sie für politische Zwecke manipuliert werden können.	2	2
ethics	2	2	1	Wie oben erwähnt, war es für mich eine Herausforderung, das Python-Skript zu integrieren.	Wie oben erwähnt war es für mich eine Herausforderung den Python-Skript zu integrieren.	2	2
ethics	2	2	1	Jetzt, wo es funktioniert hat, fühle ich mich sicherer.	Nachdem das nun funktioniert hat, fühle ich mich sicherer.	4	4
ethics	2	2	2	Das Ausführen der Python-Datei war nicht einfach, es war unerwartet, irgendwie waren meine Annahmen richtig.	Das Ausführen der Python-Datei war nicht einfach, es war unerwartet, irgendwie waren meine Annahmen richtig.	6	3
ethics	2	2	3	Zeitmangel, mangelnde Kommunikation und fehlendes Wissen sind die Herausforderungen und führten zu einigen schlechten Ergebnissen.	Zeitliche Einschränkungen, mangelnde Kommunikation und fehlendes Wissen sind die Herausforderungen und führen zu einigen schlechten Ergebnissen.	2	2
ethics	2	2	4	Es ist nichts Unerwartetes passiert, aber wir waren ein wenig knapp an Zeit.	Es ist nichts Unvorhergesehenes passiert, aber wir waren etwas knapp an Zeit.	2	2
ethics	2	2	5	Zeit ist eine Herausforderung, ich denke, wir brauchen mehr Zeit für Diskussionen, um uns mehr auf die Lösungen zu konzentrieren und nicht nur auf die Fragen.	Die Zeit ist eine Herausforderung, ich denke, wir brauchen mehr Zeit für die Diskussion, um uns mehr auf die Lösungen zu konzentrieren und nicht nur auf die Fragen.	2	2
ethics	2	2	5	Der Kurs ist eine ernsthafte Einladung an uns, tiefer zu denken, aber wir müssen dieses Wissen mit der Praxis abgleichen	Der Kurs ist eine ernsthafte Einladung für uns, tiefer zu denken, aber wir müssen dieses Wissen mit der Praxis abgleichen	3	3
ethics	2	2	6	Ich habe den Überblick über so viele Informationen und Materialien verloren	ich habe Übersicht über die so viele Informationen und Materialien verloren	2	2
ethics	2	2	7	Ein bestimmtes Thema zu definieren war relativ mühsam, wir kommen alle aus unterschiedlichen Bereichen, in Zoom-Meetings muss man genau zuhören und das Gesagte einordnen, ohne den Hintergrund der Person zu kennen.	Die Festlegung eines konkreten Themas war relativ mühsam, wir kommen alle aus unterschiedlichen Bereichen, bei Zoom-Meetings muss man genau zuhören und das Gesagte einordnen, ohne den Hintergrund der Person zu kennen.	2	2
ethics	2	2	7	Das führt dazu, dass alles länger dauert und sich für mich oft anstrengend anfühlt.	Das führt dazu, dass alles länger dauert und sich für mich oft anstrengend anfühlt.	2	2
ethics	2	2	7	Gefühle, die sich mit meinen Erfahrungen beim Lösen der Aufgabe deckten.	Gefühle, die sich mit meinen Erfahrungen bei der Lösung der Aufgabe deckten.	3	3
ethics	2	2	8	Die Zeit war knapp und die Online-Teilnahme ist schwieriger,	Die Zeit war knapp und die Online-Beteiligung ist schwieriger,	2	2
ethics	2	2	9	Die Diskussion wurde von einem Teilnehmer ein wenig entgleist, was es schwierig machte, ihr zu folgen.	Die Diskussion wurde von einem Teilnehmer ein wenig entgleist, was es schwierig machte, ihr zu folgen.	2	2
ethics	2	2	10	Durch die "virtuelle" Zusammenarbeit in der Großgruppenarbeit und die unterschiedlichen Schwerpunkte mangelt es manchmal an Organisation oder freier Zeit, was aber einkalkuliert werden muss.	Durch das "virtuelle" Zusammenarbeiten bei den großen Gruppenarbeiten und den unterschiedlichen Schwerpunkten fehlt es teils an Organisation oder freien Terminen, was aber mit einzuplanen ist.	2	2
ethics	2	2	11	Die größte Herausforderung ist das Erlernen neuer Fähigkeiten in kurzer Zeit.	Die größte Herausforderung besteht darin, in kurzer Zeit neue Fertigkeiten zu erlernen.	2	2
ethics	2	2	11	Dieser Kurs ist eine Einladung, kreativ zu sein, und ich denke, dass mehr Zeit für eine bessere Leistung benötigt wird	Dieser Kurs ist eine Einladung, kreativ zu sein und ich denke, dass mehr Zeit für eine bessere Leistung benötigt wird	6	3
ethics	2	2	12	Herausfordernd war die Annäherung an unsere Forschungsfrage, weil unser Thema sehr breit gefächert ist und wir ein Abstraktionsniveau finden wollten, mit dem wir uns wohlfühlen.	Herausfordernd war die Annäherung an unsere Forschungsfrage, da unser Thema sehr umfassend ist und wir ein Abstraktionslevel finden wollten, auf dem wir uns wohl fühlten.	6	3
ethics	2	2	13	Wir sind noch im Diskussionsprozess unseres Projekts, aber einige der Herausforderungen, die ich spüren konnte, ist, inwieweit wir die ethischen Fragen kompromittieren werden, weil die Implementierung in ein KI-System eine Herausforderung oder ein Hindernis für den Fortschritt bei der Herstellung eines solchen KI-Systems darstellt.	Wir sind noch im Diskussionsprozess unseres Projekts, aber einige der Herausforderungen, die ich spüren konnte, ist, inwieweit wir die ethischen Probleme kompromittieren werden, weil die Implementierung in ein KI-System eine Herausforderung oder ein Hindernis für den Fortschritt bei der Herstellung eines solchen KI-Systems darstellt.	2	2
ethics	2	2	14	Die Schlussfolgerung war eine große Herausforderung.	Die Schlussfolgerung war eine große Herausforderung.	2	2
ethics	2	2	14	Es ist wirklich schwierig, Fake News zu überwachen und noch schwieriger, den Glauben der Allgemeinheit zu gewinnen.	Es ist wirklich schwierig, Fake News zu überwachen und noch schwieriger, den Glauben der Allgemeinheit zu gewinnen.	1	1
ethics	2	2	14	Manchmal lieben es die Menschen auch, die Fake News zu ihrer eigenen Unterhaltung zu teilen und zu verbreiten.	Manchmal lieben es die Menschen auch, die Fake News zu ihrer eigenen Unterhaltung zu teilen und zu verbreiten.	2	2
ethics	2	3	1	ML kann mit GUI abgebildet werden.	ML kann mit GUI dargestellt werden.	3	3
ethics	2	3	2	Das bringt mich zum Nachdenken darüber, wie wir Maschinen beibringen können, die Regeln und nicht nur die Muster zu lernen.	Das bringt mich zum Nachdenken darüber, wie wir den Maschinen beibringen können, die Regeln und nicht nur die Muster zu lernen.	3	3
ethics	2	3	4	Meine Wahrnehmung gegenüber dem Thema hat sich nicht allzu sehr verändert.	Meine Wahrnehmung gegenüber dem Thema hat sich nicht allzu sehr verändert.	3	3
ethics	2	3	5	Ich bin mir meiner wissenschaftlichen, moralischen und sozialen Verantwortung stärker bewusst geworden	Ich bin mir meiner wissenschaftlichen, moralischen und sozialen Verantwortung bewusster geworden	3	3
ethics	2	3	6	Ich habe ein bisschen mehr Themen, über die ich nachdenken muss, aber es hat sich alles vermischt	Ich habe etwas mehr Themen zum Denken, aber es hat sich alles vermischt	3	3
ethics	2	3	7	Was meine Wahrnehmung wiederum verändert hat, war die Hintergrundlektüre, die mich in das vorliegende Thema und einige verwandte Bereiche eingeführt hat.	Was wiederum meine Wahrnehmung verändert hat, war die Hintergrundlektüre, die mich in das vorliegende Thema und einige verwandte Bereiche eingeführt hat.	3	3
ethics	2	3	7	Meine Sicht auf das Projekt und die unmittelbaren Assoziationen, die ich herstelle, leiten sich jedoch aus dem vorherigen Verständnis und meinem konzeptionellen Rahmen ab.	Meine Sichtweise auf das Projekt und die unmittelbaren Assoziationen, die ich herstelle, leiten sich jedoch aus dem bisherigen Verständnis und meinem konzeptionellen Rahmen ab.	3	3
ethics	2	3	7	Ich gehe davon aus, dass das Endergebnis des Projekts mir einige Programmierkenntnisse vermitteln wird.	Ich gehe davon aus, dass das Endergebnis des Projekts mir einige Programmierkenntnisse vermitteln wird.	3	3
ethics	2	3	7	Zu diesem Zeitpunkt habe ich jedoch wenig.	Zu diesem Zeitpunkt habe ich jedoch wenig.	2	2
ethics	2	3	8	Neue Perspektiven gewonnen und Denkanstöße erhalten.	Neue Perspektiven gewonnen und Stoff zum Nachdenken.	4	4
ethics	2	3	9	Es hat sich nicht verändert, aber es wurde um weitere Gesichtspunkte und Facetten erweitert.	Sie hat sich nicht verändert, wurde aber um weitere Gesichtspunkte und Facetten erweitert.	3	3
ethics	2	3	10	Super relevant!	Super relevant!	5	5
ethics	2	3	10	!	!	3	3
ethics	2	3	11	Das Ziel ist nicht, einen guten Algorithmus zu haben, sondern ihn mit vielen anderen Bereichen zu verknüpfen	Das Ziel ist nicht, einen guten Algorithmus zu haben, sondern ihn mit vielen anderen Bereichen zu verknüpfen	3	3
ethics	2	3	12	Besonders die Relevanz im juristischen Bereich ist mir klarer geworden.	Vor allem die Relevanz im juristischen Bereich ist für mich deutlicher geworden.	3	3
ethics	2	3	13	Mit der Erkenntnis, dass KI nicht nur ein mögliches Zukunftsszenario ist, sondern in der einen oder anderen Form bereits stattfindet, hat sich viel verändert.	Mit der Erkenntnis, dass KI nicht nur ein mögliches Zukunftsszenario ist, sondern auf die eine oder andere Weise bereits stattfindet, hat sich vieles verändert.	6	3
ethics	2	3	13	Allerdings ist die Grenze, ob wir von KI oder automatisierten Entscheidungssystemen sprechen, sehr fließend.	Allerdings ist die Grenze sehr fließend, ob es sich um KI oder automatisierte Entscheidungssysteme handelt.	3	3
ethics	2	3	14	Ethik ist sehr wichtig, um unnötiges Chaos zu vermeiden, aber was ist, wenn sich die Macht einer Nation nicht darum kümmert.	Ethik ist sehr wichtig, um das unnötige Chaos zu vermeiden, aber was, wenn die Macht einer Nation sich nicht darum kümmert.	6	3
ethics	2	3	14	Die Frage ist aber, wer diese großen Fische überwachen wird.	Aber die Frage ist, wer wird diese großen Fische überwachen?	6	3
ethics	2	4	1	Einige grundlegende theoretische Kenntnisse konnten bereits in die Praxis umgesetzt werden, was ich zu schätzen weiß.	Einige theoretische Grundkenntnisse konnten bereits zur praktischen Anwendung kommen, was ich sehr schätze.	4	4
ethics	2	4	2	Ich musste meine Fähigkeiten neu einschätzen, um zu wissen, ob meine Kompetenzen ausreichen, um meine Forschungsfragen zu beantworten.	Ich musste meine Fähigkeiten neu einschätzen, um zu wissen, ob meine Kompetenzen ausreichen, um meine Forschungsfragen zu beantworten.	3	3
ethics	2	4	3	Mir sind die Fähigkeiten aufgefallen, die verbessert werden können.	Ich habe die Fähigkeiten bemerkt, die verbessert werden können.	6	3
ethics	2	4	4	-	-	3	3
ethics	2	4	5	Kritisches Denken ist eine wichtige Fähigkeit	Kritisches Denken ist eine wichtige Kompetenz	3	3
ethics	2	4	6	schwer zu sagen	schwierig zu sagen	2	2
ethics	2	4	7	Zum jetzigen Zeitpunkt habe ich nicht das Gefühl, dass sich meine Kompetenzen verändert haben, da ich zur Lösung von Aufgaben auf bereits erlernte Fähigkeiten und konzeptionelle Rahmen zurückgreife.	Zu diesem Zeitpunkt habe ich nicht das Gefühl, dass sich meine Kompetenzen verändert haben, da ich zur Lösung der Aufgaben auf bereits erlernte Fähigkeiten und konzeptionelle Rahmen zurückgreife.	3	3
ethics	2	4	7	Für mich ist neues Wissen nicht gleichzusetzen mit Kompetenzen.	Für mich ist neues Wissen nicht mit Kompetenzen gleichzusetzen.	3	3
ethics	2	4	7	Vielleicht wird sich das zu einem späteren Zeitpunkt ändern.	Vielleicht wird sich das zu einem späteren Zeitpunkt ändern.	3	3
ethics	2	4	8	Überhaupt nicht	ganz und gar nicht	3	3
ethics	2	4	9	Hat meine Wahrnehmung bezüglich meiner Kompetenzen nicht verändert.	Hat meine Wahrnehmung bezüglich meiner Kompetenzen nicht verändert.	3	3
ethics	2	4	10	Durch Lektüre, Seminar, Selbstreflexion etc. besser informiert.	Fundierter durch Lesen, Seminar, Eigenreflektionen, etc.	3	3
ethics	2	4	11	Ich habe das Gefühl, die angesprochenen Themen vertieft diskutieren zu können und neue Erkenntnisse zu gewinnen	Ich habe das Gefühl, dass ich die angesprochenen Themen tiefgründig diskutieren und neue Erkenntnisse gewinnen kann	3	3
ethics	2	4	12	Die Wahrnehmung meiner Kompetenzen ist ähnlich geblieben.	Die Wahrnehmung meiner Kompetenzen ist ähnlich geblieben.	3	3
ethics	2	4	13	Ich weiß, dass ich noch viel lernen muss, um kompetent genug zu sein, denn bisher war meine Fähigkeit, ethische Themen anzusprechen, sehr eindimensional und auf das Problem bezogen, das den meisten (informierten Bürgern) bekannt ist.	Ich weiß, dass ich noch viel lernen muss, um kompetent genug zu sein, denn bisher war meine Fähigkeit, ethische Fragen anzugehen, sehr eindimensional und basierte auf dem Problem, das den meisten (informierten Bürgern) bekannt ist.	2	2
ethics	2	4	13	Die Ethik selbst ist ein weites Feld und die Herausforderung, eine universelle Ethik zu implementieren, ist eine so komplexe und schwierige Sache, aber die Möglichkeit der KI drängt uns die Notwendigkeit für so etwas auf, da der Einsatz von KI universell sein wird.	Die Ethik selbst ist ein weites Feld und die Herausforderung, eine universelle Ethik zu implementieren, ist eine so komplexe und schwierige Sache, aber die Möglichkeit der KI drängt uns die Notwendigkeit einer solchen Sache, da die Verwendung von KI universell sein wird.	6	3
ethics	2	4	14	Es ist sehr wichtig, als Individuum ethisch zu sein.	Es ist sehr wichtig, als Einzelner ethisch korrekt zu sein.	3	3
ethics	2	4	14	Denn dieses eine Individuum kann morgen auf dem Stuhl der Macht sitzen.	Denn dieses eine Individuum kann morgen auf dem Stuhl der Macht sitzen.	3	3
ethics	2	4	14	Ich denke, die Weitergabe von Ethik kommt zuerst von der Familie.	Ich glaube, diese Vermittlung von Ethik kommt zunächst aus der Familie.	3	3
ethics	2	4	14	Kultur-Alter-Geschlecht-Demographie ist auch ein großer Einfluss in diesem ganzen Spiel.	Kultur-Alter-Geschlecht-Demographie ist auch ein großer Einfluss in diesem ganzen Spiel.	3	3
ethics	2	5	1	Zu Beginn der Aufgabe war ich nur neugierig, während besagter Herausforderung fühlte ich mich unvorbereitet und zweifelnd - das wandelte sich aber durch die Lösung in ein zuversichtlicheres Gefühl.	Zu Anfang der Aufgabe war ich nur neugierig, während der genannten Herausforderung fühlte ich mich unvorbereitet und zweifelhaft - das wurde jedoch durch die Lösung in ein sichereres Gefühl umgewandelt.	6	4
ethics	2	5	1	Mein Interesse war geweckt.	Mein Interesse wurde gesteigert.	4	4
ethics	2	5	2	Ich war aufgeregt	Ich war begeistert	5	5
ethics	2	5	3	Wenn etwas nicht so läuft wie erwartet, kann man sich ärgern und enttäuscht sein, aber wenn ein schönes Produkt entsteht, macht einen das natürlich glücklich.	Wenn etwas nicht so läuft wie erwartet, dann kann man sich ärgern und enttäuscht sein, aber wenn ein schönes Produkt entwickelt wird, dann macht das natürlich glücklich.	6	3
ethics	2	5	4	Die Diskussion zum Thema war interessant und ich war mit Begeisterung dabei	Die Diskussion über das Thema war interessant und ich habe mit Begeisterung teilgenommen	4	4
ethics	2	5	5	Ich war begeistert, die Aufgaben entsprachen wirklich meinen Werten und haben mich motiviert	Ich war begeistert, die Aufgaben entsprachen wirklich meinen Werten und gaben mir Motivation	5	5
ethics	2	5	6	ein bisschen schwierig zu beantworten	etwas schwer zu antworten	2	2
ethics	2	5	7	Ich fühlte mich erleichtert, weil wir die Aufgabe lösen konnten.	Ich fühlte mich erleichtert, da wir die Aufgabe lösen konnten.	4	4
ethics	2	5	7	Meine persönliche Einstellung hat sich bei dieser Aufgabe nur dahingehend geändert, dass ich die Gruppenarbeit genieße und sie als hilfreich empfinde.	Die einzige Art und Weise, wie sich meine persönlichen Überzeugungen bei dieser Aufgabe verändert haben, ist, dass ich die Gruppenarbeit genieße und sie als hilfreich empfinde.	4	4
ethics	2	5	7	Dieses Gefühl habe ich normalerweise nur, wenn ich die Menschen, mit denen ich zusammenarbeite, kenne und schätze, und es bezieht sich normalerweise auf meinen "persönlichen" Bereich.	Dieses Gefühl habe ich normalerweise nur, wenn ich die Menschen, mit denen ich zusammenarbeite, kenne und schätze, und es ist meist spezifisch für meinen "persönlichen" Bereich.	3	3
ethics	2	5	8	Gelassenheit und Interesse.	Gelassen und interessiert.	4	4
ethics	2	5	9	Vergnügen und Stolz.	Freude und Stolz.	4	4
ethics	2	5	10	Keine besonderen Unterschiede - teilweise war ich aber nach den Sitzungen sehr motiviert.	Keine besonders abweichenden – teils war ich jedoch sehr motiviert nach den Sessions.	4	4
ethics	2	5	11	Enthusiastisch	begeistert	4	4
ethics	2	5	12	Nach gelösten Aufgaben oder erreichten kleinen Schritten war ich erleichtert und hatte ein klareres Bild von unserem Lösungsweg.	Nach Aufgabenlösungen oder kleinen erreichten Schritten war ich erleichtert und hatte ein klareres Bild von unserem Lösungsweg.	4	4
ethics	2	5	13	Wir sind immer noch dabei und noch lange nicht fertig, aber gefühlsmäßig finde ich es spannend, an diesem Thema zu arbeiten, und manchmal fühlt es sich so an, als wäre der Umfang so groß, dass man sich fragt, ob ein solches System im Vergleich zur Theorie auch nur annähernd zufriedenstellend sein würde.	Wir sind immer noch dabei und weit davon entfernt, fertig zu sein, aber gefühlsmäßig finde ich es aufregend, an diesem Thema zu arbeiten, und manchmal hat man das Gefühl, dass der Umfang so groß ist, dass man sich fragt, ob ein solches System auch nur annähernd zufriedenstellend wäre, wenn man es mit der Theorie vergleicht.	6	4
ethics	2	5	14	Das Wichtigste ist, ethisch zu sein.	Es ist das Wichtigste, ethisch korrekt zu sein.	3	3
ethics	2	5	14	Es ist schwierig, das Gesamtszenario zu kontrollieren, aber die individuelle Entwicklung, sowohl die moralische als auch die pädagogische, wird es verändern können.	Es ist schwer, das Gesamtszenario zu kontrollieren, aber die individuelle Entwicklung, sowohl moralisch als auch pädagogisch, wird es ändern können.	6	3