coll_lecture	coll_session	subj	text_id	sentence	final	final_without6
swp	2	1	0	ich keine erfahrung in projekarbeiten und auch sehr wenig im programmieren	3	3
swp	2	2	0	Gutes Team, Interessantes	4	4
swp	2	2	0	Projekt, remote, mehrmals pro woche, weil es spass macht, mehrmals pro woche	4	4
swp	2	3	0	Viel organisatorisches	3	3
swp	2	4	0	Infrastrucktur eingerichtet, Zeitplan erstellt, wissen zum Thema angelesen	3	3
swp	2	5	0	Erste Kommunikation, minimale Wissensaneignung	3	3
swp	2	6	0	Die letzte Woche war okay.	3	3
swp	2	6	0	Aber bisher wurde ja nur geplant, ich prokrastiniere aktuell nur, mich mit der Software auseinanderzusetzen.	2	2
swp	2	6	0	Ich ahne, dass noch viel Arbeit auf mich zukommt.	3	3
swp	2	7	0	Vorbereiten der Entwicklungsumgebung, Verbinden mit dem Remote-Server, Einrichten des Projekt-Repository	3	3
swp	2	8	0	Ich habe eine Idee worum das Thema geht, aber teilweise hinderlich ist, dass man nicht genau weiss, was zur einem zur Verfügung steht in Anbetracht der Daten etc.	6	2
swp	2	9	0	Arbeiten in der Gruppe läuft gut.	4	4
swp	2	9	0	Erste Schritte und Gedanken wurden gemacht.	3	3
swp	2	9	0	Details zu dem Projekt sind leider noch nicht bekannt.	2	2
swp	2	10	0	Wenig Gruppenarbeit bisher gemacht aufgrund von Kommunikations-Schwierigkeiten und dadurch ein wenig erschlagen vom Start.	2	2
swp	2	11	0	War nicht viel zu tun in dieser Woche.	3	3
swp	2	11	0	Die größte Herausforderung war es Kontakt zu Team Membern aufzubauen.	2	2
swp	2	12	0	Die Teamgröße war leider nicht so groß.	2	2
swp	2	12	0	Es hat sehr viel Spaß gemacht, wie wir miteinander im Team im ersten Meeting gestern zusammengekommen sind.	5	5
swp	2	12	0	Dass wir die latency nicht bedacht haben war schade, aber kann man sicherlich auch eine Lösung für finden.	6	2
swp	2	12	0	Es gab bischer noch nicht so viel Fortschritt, unter anderem einfach, weil ich noch nicht die Zeit hatte, mich da stark einzufinden.	2	2
swp	2	12	0	Der Vortrag war gut und ich habe Lob erhalten, was gut war.	4	4
swp	2	12	0	Die Vortrags-Art hätte besser sein können, es war nicht flüssig genug.	2	2
swp	2	12	0	Möglicherweise sollten wir uns in unserer Planung etwas näher an die Hardware & Software-Gegebenheiten halten.	3	3
swp	2	13	0	Hatte einige Diskussionen mit den Teammitgliedern und schloss die erste Präsentation ab	3	3
swp	2	15	0	Wir haben die Meilensteine vorbereitet und waren viel mit E-Mail Korrespondenz beschäftigt.	3	3
swp	2	15	0	Es ist etwas schwierig den Überblick im offiziellen Google Dokument zu behalten.	2	2
swp	2	0	1	Pojektplanung	3	3
swp	2	1	1	noch dabei sich reinzulesen	3	3
swp	2	2	1	habe einsichten in vorgehensweisen erhalten, alles richtig gemacht	3	3
swp	2	3	1	Noch nicht viel gelernt	3	3
swp	2	4	1	Sehr viel neues über die Infrastrucktur gelernt und das allgemeine Thema	3	3
swp	2	5	1	Bisher nicht viel, etwas an basics...	3	3
swp	2	5	1	Noch keine größeren Sinneswandel o.ä.	3	3
swp	2	6	1	Bis dato habe ich leider noch nicht viel Zeit in das Softwareprojekt gesteckt.	2	2
swp	2	6	1	Ich fühle mich mit dem Semester etwas überfordert und habe Schwierigkeiten mit dem Zeitmanagement.	2	2
swp	2	7	1	Ich habe gelernt, wie man ssh benutzt und wie man einen Remote-Server in der ML-Entwicklung benutzt	3	3
swp	2	8	1	Im Vergleich zu letzter Woche habe ich an Selbstbewusstsein verloren.	2	2
swp	2	9	1	Aufgaben besser lesen.	3	3
swp	2	9	1	Ansonsten gute Zusammenarbeit in der Gruppe.	4	4
swp	2	10	1	Mehr lesen und öfter alle Kommunikationskanäle checken.	3	3
swp	2	11	1	Ich habe neue Leute kennen gelernt und bin glücklich mit meinem Team.	4	4
swp	2	12	1	Wir waren an ein paar Punkten blind und haben jetzt einen besseren Überblick.	6	4
swp	2	12	1	Es ist  Neuland, habe ich gemerkt.	3	3
swp	2	12	1	Die gelernten Sachen können wir definitiv in unser Plan integrieren.	3	3
swp	2	12	1	Bisschen mehr auf die Requirements von Seiten des Labs achten ist ich glaube die Devise.	3	3
swp	2	13	1	Mir ist klarer, was ich als nächstes tun soll	3	3
swp	2	14	1	Ich habe einige Informationen über Modelle gelernt und habe eine Ahnung wie ich mein eigenes Verständnis etwas erweitern kann	3	3
swp	2	0	2	Datenbeschaffung	3	3
swp	2	1	2	mit anderen mitzuhalten, weil mein niveau niedriger ist	2	2
swp	2	2	2	wenig interesse im projekt ursprünlighc	6	2
swp	2	3	2	Viel warten auf Antworten	2	2
swp	2	4	2	Teileweise sind manche technischen Modelle noch schwer zu vertsehen, sehr viel auf einmal	2	2
swp	2	5	2	Kommunikation, Arbeitsteilung	3	3
swp	2	6	2	Ich finde es schwer, Uni und Sozialleben in diesen unvorhersehbaren Coronazeiten zu ordnen.	2	2
swp	2	7	2	Keine	3	3
swp	2	8	2	Unwissenheit über die Anzahl der Daten, Vorgehensweisen, Zeitplan	2	2
swp	2	9	2	Details zu dem Projekt herausfinden und abklären.	3	3
swp	2	11	2	Die größte Herausforderung war es Kontakt zu Team Membern aufzubauen.	2	2
swp	2	12	2	Latency ist ein großes Problem.	2	2
swp	2	12	2	Ich hoffe wir können das alles klären und das wird nicht Mehrarbeit heißen.	6	2
swp	2	13	2	nicht viel Erfahrung mit Softwareprojekt	2	2
swp	2	14	2	Ich hatte etwas Probleme in das Thema rein zu kommen aber ich vermute dass sich das mit etwas Recherche verbessern wird	6	2
swp	2	15	2	Uns fehlten Informationen um vernünftig zu planen.	2	2
swp	2	1	3	angst die ganze zeit dumme und selbstverständliche fragen zu stellen, sodass keiner mit mir arbeiten will	1	1
swp	2	2	3	Sehr positiv überrascht über den Spass den das Projekt macht und die Leute mit denen ich zusammenarbeite	5	5
swp	2	4	3	Ich finde das Thema sehr spannend und freue mich auf die Arbeit auch wenn es häufig sehr schwirieg ist	6	5
swp	2	5	3	Motivation hat sich etwas verbessert, nach Gespräch mit Supervisor, einiges ist klarer geworden.	4	4
swp	2	5	3	Interesse ist weiterhin da!	4	4
swp	2	6	3	Ich habe bei Softwareprojekten meistens kein Problem mit dem Code.	4	4
swp	2	6	3	Ich habe nur überhaupt keine Lust, irgendwelche Pfade umzuändern und Umgebungen einzurichten.	1	1
swp	2	6	3	Wenn das steht, will ich das erstmal für lange Zeit nicht mehr machen müssen.	2	2
swp	2	6	3	Ich sollte es trotzdem schnell machen.	3	3
swp	2	7	3	Ich bin wirklich begeistert, an diesem Projekt zu arbeiten und in die Forschungsarbeit und ein relevantes KI-Projekt involviert zu sein, ich möchte mehr über das Thema lernen.	5	5
swp	2	7	3	Ich kann es kaum erwarten, das Endprodukt fertig zu haben.	4	4
swp	2	9	3	Es wäre cool, wenn man mehr über das Projekt kommunizieren könnte.	2	2
swp	2	10	3	Holpriger Start und ich hoffe das wird besser.	6	2
swp	2	11	3	Zurzeit neutral	3	3
swp	2	12	3	Es war eine anstrengende Zeit in den letzten paar Wochen.	3	3
swp	2	12	3	Ich hoffe, dass das SWP nicht wieder ein großer Stressfaktor in den nächsten Wochen werden wird.	6	2
swp	2	13	3	Ich freue mich auf die Projektarbeit später	4	4
swp	2	14	3	Bin Motiviert einiges dazu zu lernen und praktische Erfahrungen in dem Themengebiet zu sammeln	4	4
swp	2	0	0	WIr haben unser Environment geklärt und einige mögliche Vorgehensweisen besprochen.	3	3
swp	2	1	0	We worked on setting up the remote environment and connecting our local notebooks to run on the remote clusters, and we finally managed to run our notebooks remotely on the servers and we also learned how to setup the notebooks to run without internet connection	3	3
swp	2	2	0	Es war eine sehr gute Erfahrung.	5	5
swp	2	2	0	Unser Superviser ist sehr engagiert und involviert alle Team-Mitglieder.	4	4
swp	2	2	0	Wir haben eine relativ kleine Gruppe und die Aufgaben sind relativ große Brocken, sodass jeder quasi bei allen mitmacht bzw. zumindest in allen "Brocken" auf dem neusten Stand ist.	3	3
swp	2	2	0	Die Aufgaben ergeben sich meißt von allein im Bezug auf unser Ziel, oder werden durch Fragen von Professor definiert und sind alle in der Regel interessant und lösbar.	4	4
swp	2	3	0	Ich habe einiges gelesen, GitHub, Labelbox aufgesetzt.	3	3
swp	2	3	0	Ein Teammitglied hat Colab aufgesetzt, sonst habe ich nicht viel mitbekommen von diesen.	3	3
swp	2	3	0	Die Entscheidungen wurden bereits vorher gefällt, zusammen (oder eher durch) den Supervisor oder waren einfach offensichtlich/leicht.	3	3
swp	2	4	0	Wir haben viele Entscheidungen unter den 3 Polizeigruppen getroffen.	3	3
swp	2	4	0	Das war sehr viel Aufwand, gerade weil auch die Polizei lange braucht um Fragen von uns beantworten zu können.	2	2
swp	2	4	0	Wir sind trotzdem gut vorangekommen und haben in mehreren Teamsitzungen viele Entscheidungen zusammen getroffen.	4	4
swp	2	5	0	Es gab sehr motivierte Teammitglieder, ein paar weniger motivierte.	6	3
swp	2	5	0	Wir haben miteinander gesprochen und Aufgaben verteilt.	3	3
swp	2	5	0	Das Gespräch war gut.	4	4
swp	2	5	0	Die Bearbeitung der Trainingsdaten hat Spaß gemacht, wir haben ein paar Sacheng elabelt und konnten schnell in die Erkundung der zu verwendenden Technologien einsteigen.	4	4
swp	2	5	0	Wir haben uns doch entschieden, mehr auszutesten, was ich gut fand.	4	4
swp	2	5	0	Single track Ansätze haben oft höhere failure-chancen.	3	3
swp	2	6	0	Ich habe mit meiner Gruppe, der externen Interessengruppe, sowie mit den anderen Gruppen meines Projekts zusammengearbeitet.	3	3
swp	2	6	0	Die Kommunikation lief ganz gut und wir konnten in angemessener Zeit Ergebnisse produzieren.	4	4
swp	2	6	0	Im Vordergrund stand dabei die Entscheidung über die Aufgabenaufteilung auf die Gruppen, sowie die Frage nach den Daten, die wir bekommen.	3	3
swp	2	7	0	Unsere Präsentation ist deutlich besser geworden.	5	5
swp	2	7	0	Wir haben uns in unserer Kleingruppe und in der Gesamtgruppe getroffen.	3	3
swp	2	7	0	Wir haben eine große Entscheidung getroffen, wie wir an unser Projekt ran gehen und ich denke es war die richtige.	4	4
swp	2	8	0	Das ganze Team war dabei.	3	3
swp	2	8	0	Wir haben die Env. zusammen besprochen und ich habe die Präsi für diese Woche vorbereitet.	3	3
swp	2	8	0	Ich habe mich freiwillig gemeldet weil ich lernen möchte bessere Folien zu erstellen und ich möchte besser im präsentieren werden.	3	3
swp	2	9	0	Gemeinsam mit den Teammitgliedern haben wir die Umgebung für das Projekt eingerichtet, weil wir sie präsentieren müssen.	3	3
swp	2	10	0	Die gelösten Aufgaben umfassen die Datensatzsuche und das Verstehen.	3	3
swp	2	10	0	Auch die Definition der Umgebung war etwas, das wir definieren mussten.	3	3
swp	2	11	0	Wir haben die beiden Papers gelesen und relevante Information über Datasets gesammelt.	3	3
swp	2	11	0	Dann haben wir die Recherche der Datasets zwischen uns gesplittet und jeder hat den zugewissenen Dataset analysiert.	3	3
swp	2	12	0	Wir haben uns Nachmittag bzw. Abends getroffen und sind über die Meilensteine gegangen.	3	3
swp	2	12	0	Auch haben wir die Accounts angelegt und uns eingelesen.	3	3
swp	2	12	0	Die Kommunikation kam manchmal schleppend voran und das testen der Daten war noch holprig.	2	2
swp	2	13	0	Ich habe alleine versucht, die Umgebung für unser Projekt einzurichten.	3	3
swp	2	13	0	Dabei bin ich auf viele Errors gestoßen und versuche jetzt letztendlich ein anderes Betriebssystem über eine Virtualbox zu verwenden, um die Fehler zu umgehen.	2	2
swp	2	13	0	Bei Problemen habe ich über unseren Teamchat aber viel Hilfe bekommen und fühle mich deshalb gut unterstützt und nicht alleine gelassen.	4	4
swp	2	14	0	Unseres Team hat gemeinsam an das Problem gearbeitet, wir haben uns per Discord kommuniziert und an den optimalen Lösungen gedacht.	3	3
swp	2	0	1	Wir müssen uns noch belesen.	3	3
swp	2	1	1	I learned how to use port-forwarding and tmux libraries, and I learned more about the different datasets that are used in NLP.	3	3
swp	2	1	1	Seeing how things works closely gave me more confidence, I would like to learn more and work on myself more in that regard and better understand how big models can be trained and used in production, when training locally is no longer possible.	4	4
swp	2	2	1	Wir haben quasi gelernt uns in einem echten Feld der ML unterstützten Verhaltensforschung zu engagieren und arbeiten mit echten Technologien mit einem klaren Ziel welches letztendlich auch zur Umsetzung in eine aktiv genutze Software führen soll.	3	3
swp	2	2	1	Wir könnten vielleicht schneller arbeiten, liegen  aber im Gesamtbild gut in der Zeit.	6	4
swp	2	3	1	Ich habe etwas über das Thema gelernt und über verschiedene Programme/	3	3
swp	2	3	1	Tools.	3	3
swp	2	3	1	Viel mehr ist diese Woche eigentlich nicht passiert.	3	3
swp	2	4	1	Da wir immer noch nicht anfangen konnten das Projekt richtig zu starten haben wir wieder vor allem organisatorische Skills gelernt.	3	3
swp	2	4	1	Ein bisschen Hintergrundrecherche hat mir aber auch neues Wissen vermittelt welches mir auch in der Praxis helfen kann.	3	3
swp	2	5	1	Es sind eher mehr Fragen aufgekommen.	3	3
swp	2	5	1	Was aber auch gut ist, weil wir durch die Fragen eher eine Richtung kriegen.	4	4
swp	2	6	1	Bis hier hin habe ich gelernt, dass die deutsche Bürokratie einem viele Steine in den Weg legen kann und Dinge nicht wirklich einfacher macht.	2	2
swp	2	6	1	Auf jeden Fall ist es besser proaktiv zu werden und nicht nur auf die Arbeit anderer zu hoffen.	3	3
swp	2	7	1	Ich habe gelernt, das Google Doc noch aufmerksamer zu lesen und auf alle Details zu achten, die Professor hören möchte.	3	3
swp	2	7	1	Das ist uns gut gelungen und werden wir denke ich weiterführen können.	4	4
swp	2	7	1	Es stehen viele Besprechungen in unserer Gruppe an.	3	3
swp	2	8	1	Viel dazu gelernt habe ich diese Woche nicht.	2	2
swp	2	8	1	Aber das liegt an dem Projekt und dem Flaschenhals den wir leider haben.	2	2
swp	2	9	1	Ich habe etwas über die Formen der Bienenzellen gelernt.	3	3
swp	2	9	1	Wir hätten aktiver in Teambesprechungen sein sollen.	2	2
swp	2	10	1	Derzeit habe ich gelernt, wie ich Informationen über den Datensatz finde und wie ich ihn meiner Gruppe erklären kann	3	3
swp	2	11	1	Ich habe gelernt wie man die Forschungs-Arbeiten analysiert.	3	3
swp	2	11	1	Bestimmt werde ich diese Kenntnisse weiter verwenden.	4	4
swp	2	12	1	Ich fühle mich ein wenig besser über das Thema informiert und glaube es kann jetzt richtig losgehen.	4	4
swp	2	12	1	Die anfängliche Verwirrung verschwindet ein wenig und es entsteht mehr Diskussion in die ich mich einbringen kann.	4	4
swp	2	13	1	Ich habe endlich mein dürftiges Wissen über das Arbeiten mit der Commandline in Windows und Linux aufgefrischt und fühle mich durch die vielen Lösungsansätze, die ich ausprobiert habe, nun sehr flüssig in der Umgebung.	4	4
swp	2	14	1	Viel neues habe ich nicht gelernt, aber selbstbewusster geworden - schon.	6	4
swp	2	14	1	Dadurch, dass wir mehr Info zu der Aufgabe bekommen haben und schon etwas konkretes uns nachdenken konnten.	3	3
swp	2	14	1	Zur Verbesserung habe ich noch nichts vor, weil das immer noch Anfang von dem Projekt ist.	3	3
swp	2	14	1	Später könnte ich die Frage beantworten.	3	3
swp	2	0	2	Wir sich noch zeigen.	3	3
swp	2	1	2	Meine vorherigen Annahmen über die Schwierigkeit der Aufgabe waren völlig falsch.	6	3
swp	2	2	2	Alles gut soweit.	4	4
swp	2	3	2	Die Kommunikation ist weiterhin etwas problematisch.	2	2
swp	2	3	2	Von den anderen scheint nicht so viel zu kommen...	2	2
swp	2	3	2	Ich hoffe das ändert sich zum besseren...	6	2
swp	2	4	2	Die langsame Projektplanung vverschiebt unsere Milestones langsam immer weiter nach hinten.	2	2
swp	2	4	2	Das ist aktuell unser größtes Problem, ist aber hoffentlich in absehbarer Zeit lösbar.	6	4
swp	2	5	2	Eine Herausforderung ist, dass wir noch nicht Wissen in welche Richtung wir gehen müssen.	2	2
swp	2	5	2	Das ist insofern schlecht, weil wir noch nicht sicher wissen.	2	2
swp	2	5	2	Aber es muss nicht sein, dass etwas schlechtes bei der Beseitigung der Ungewissheit passiert.	3	3
swp	2	5	2	Also... wait and see.	3	3
swp	2	6	2	Die größte Herausforderung ist die Kommunikation unter den Gruppen und die Absprache mit den externen Interessenvertretern.	2	2
swp	2	6	2	Da sorgt dafür, dass man generell mehr Zeit für Absprachen und Details einplanen muss.	3	3
swp	2	7	2	Kommunikation mit allen Beteiligten ist langwierig.	2	2
swp	2	7	2	Wir brauchen dringend Infos!	1	1
swp	2	7	2	Ich habe Sorge den Zeitplan nicht einhalten zu können und später in Stress zu geraten.	2	2
swp	2	8	2	Bei der Aufgabenlösung war am schwierigsten unsere konkrete Aufgabe herauszufinden.	2	2
swp	2	8	2	Ich finde die Formulierung nicht konkret genug.	2	2
swp	2	8	2	Gerade für Präsentationen und für inhaltliche wäre eine Checklist mit den Inhalten über die wir berichten sollen sehr holfreich.	3	3
swp	2	9	2	Wir konnten uns nicht entscheiden, wie wir die Daten kennzeichnen.	3	3
swp	2	9	2	Ich denke, das ist uns allen ein bisschen unklar.	2	2
swp	2	10	2	Es wurde noch kein Problem gefunden, vielleicht könnte die Gruppenkoordination verbessert werden.	6	3
swp	2	11	2	Schwierigkeit hatte ich beim Verstehen der Datasets , wie diese erstellt wurden und wie verwendet.	2	2
swp	2	12	2	Die zeitlichen Abgrenzungen zwischen den Aufgaben ist noch sehr verschwommen und es wird das bearbeitet was bis zum nächsten Meilenstein gebraucht wird und nicht so viel mehr.	2	2
swp	2	12	2	Es ist schwierig sich auf mehrere Probleme zu konzentrieren wenn man noch bei anderen in der Diskussion steckt und sich uneinig ist.	2	2
swp	2	13	2	Die größten Schwierigkeiten hatte ich(analog zu anderen Teammitgliedern) mit der Installation der Umgebung, die wir für unsere Aufgabe benötigen.	2	2
swp	2	13	2	Wenn bei der Installation irgendetwas schief geht und auch Internetrecherchen auftun, was eigentlich schief gelaufen ist, kommt sehr schnell Frustration auf.	2	2
swp	2	14	2	Von den Schwierigkeiten war eher die Unklarheit von der Aufgabenstellung am Anfang, jetzt ist alles mehr oder weniger klar.	6	3
swp	2	0	3	Da wir am noch am Anfang stehen müssen wir abwarten was passiert in den nächsten Tagen.	3	3
swp	2	1	3	Meine Wahrnehmung des Themas selbst hat sich nicht verändert	3	3
swp	2	2	3	Was	3	3
swp	2	3	3	Sie hat sich kaum geändert...	3	3
swp	2	4	3	Eigentlich gar nicht	3	3
swp	2	5	3	Mehr Optionen hat meine Vorstellungen zum Verlauf des SWP geändert.	3	3
swp	2	6	3	Gar nicht.	3	3
swp	2	6	3	Wir beginnen gerade erst mit der Einarbeitung in unser spezielles Thema.	3	3
swp	2	7	3	Ich verstehe jetzt selber besser unsere Aufgabe.	4	4
swp	2	7	3	Wie viel Zeit wir für Organisation und Kommunikation brauchen kann ich besser einschätzen.	4	4
swp	2	9	3	Meine Meinung hat sich nicht viel geändert.	3	3
swp	2	10	3	No change at the moment	3	3
swp	2	11	3	Meine Wahrnehmung hat sich nur erhöht, weil die sorgfältige Analyse des Papers viele Fragen verursacht hat auf die ich jetzt die Antworte suche.	4	4
swp	2	12	3	Das Thema ist klarer geworden und die Ansätze und Richtungen sind deutlicher als vorher das liegt aber auch eher zum Großteil daran das man jetzt eingelesener ist also vorher.	4	4
swp	2	13	3	Ich kann nun auch durch die Erfolge und Erfahrungsberichte meiner Teamkollegen besser einschätzen, was ich im Projekt zu erwarten habe und welche Aufgaben auf mich zukommen.	4	4
swp	2	14	3	Jetzt haben wir einbisschen mehr Ideen dazu bekommen, wie wir die gestellte uns Aufgabe lösen können.	4	4
swp	2	0	4	Siehe oben.	3	3
swp	2	1	4	Ich habe jetzt mehr Vertrauen in meine Fähigkeiten und Fertigkeiten, die Aufgabe zu erfüllen	4	4
swp	2	2	4	Man lernt halt immer dazu und das ist auch hier der Fall.	3	3
swp	2	2	4	Wenn es nur um reproduktion von bereits Angelerntem ginge, würde das Studieren wenig Sinn machen.	3	3
swp	2	3	4	Die Wahrnehmung gegenüber meiner Kompetenzen hat sich eigentlich gar nicht veändert	3	3
swp	2	4	4	Auch hier hat sich nicht viel verändert	3	3
swp	2	5	4	Die Grundlagen sind die gleichen, die Herausforderungen sind ähnlich.	3	3
swp	2	6	4	Bisher haben wir noch nicht wirklich an speziell unserem Projekt arbeiten können.	3	3
swp	2	6	4	Dementsprechend konnte ich noch keine Kompetenzen erarbeiten.	3	3
swp	2	7	4	Kommunikation liegt mir gut und ich bin stolz den Überblick über die vielen ToDo's behalten zu haben.	4	4
swp	2	8	4	Ich weiß was ich besser machen kann für die Präsentation	3	3
swp	2	9	4	Ich denke, es ist eine kleine Herausforderung für mich, Git zu benutzen, weil ich nicht daran gewöhnt bin.	2	2
swp	2	10	4	Momentan keine Änderung	3	3
swp	2	11	4	Die Aufgabe hat gezeigt, dass ich besser lernen muss wie man eine Wissenschaftlicher Arbeit analysiert.	6	3
swp	2	12	4	Es hat sich diese Woche kaum verändert da meine eingeschätzte Kompetenz weder richtig gefordert noch schleifen gelassen wurde.	3	3
swp	2	12	4	Es wird wahrscheinlich in der Zukunft bei den komplexeren Teilen dieses Projektes zu mehr Rückschlägen kommen.	2	2
swp	2	13	4	Ich habe deutlich mehr Sicherheit im Umgang mit Commandlines erhalten und werde auch in Zukunft weniger vor Aufgaben zurückschrecken, die die Nutzung dieser voraussetzen.	4	4
swp	2	0	5	Ebenfalls ist hier noch auf die nächsten Tage abzuwarten	3	3
swp	2	1	5	Ich fühlte mich wirklich gut, fast so, als hätte ich etwas erobert.	5	5
swp	2	1	5	Ich habe das Trainieren von Modellen aus der Ferne immer als eine übermäßig komplizierte Aufgabe empfunden, aber jetzt scheint es viel einfacher zu sein, und das gibt mir mehr Selbstvertrauen.	5	5
swp	2	2	5	Alles sehr positiv verlaufen.	5	5
swp	2	2	5	Bin glücklich	4	4
swp	2	3	5	Ich war hauptsächlich etwas genervt, aber auch sehr interessiert.	6	5
swp	2	3	5	Interessiert, weil das Thema einfach spannend ist.	4	4
swp	2	3	5	Genervt, weil von den Teammitgliedern doch sehr wenig kommt.	1	1
swp	2	4	5	Frustration wegen des langsamen Vorankommens	2	2
swp	2	5	5	Ich habe mich enthusiastisch gefühlt, einzusteigen.	5	5
swp	2	5	5	Neugierig gegenüber dem was passiert und manchmal ein Stück ermüdet, wenn es nicht auf Anhieb funktioniert hat.	6	2
swp	2	6	5	Bisher eher gestresst und etwas im Dunklen tappend.	2	2
swp	2	6	5	Das klärt sich hoffentlich mit der Zeit und wenn wir uns mehr mit dem Thema auseinandersetzen.	6	3
swp	2	7	5	Ich bin etwas frustriert, dass unser Projektfortschritt durch andere gehemmt wird.	2	2
swp	2	7	5	Hoffentlich bessert sich das ganz bald und bleibt positiv.	6	4
swp	2	8	5	Verzweifelt weil ich nicht genau wusste wie ich die Präsentation strukturieren sollte.	1	1
swp	2	8	5	Gerade in Präsentationen über Softwareprojekte ist das für mich etwas ganz neues.	3	3
swp	2	8	5	Ansonsten Meetings etc. machen bisher viel Spaß.	5	5
swp	2	8	5	Ein wenig Frust ist mit dabei weil der Flaschenhals über unser Projekt etwas nervig ist und wir außer abwarten nicht viel machen können.	2	2
swp	2	9	5	Nachdem ich ein kleines Problem gelöst hatte, fühlte ich mich gut.	4	4
swp	2	10	5	Ich war mit den erzielten Ergebnissen zufrieden	4	4
swp	2	11	5	Ich habe mich während der Aufgabe konzentriert gefühlt und nach der Lösung froh und motiviert tiefer dieses Thema zu analysieren.	4	4
swp	2	12	5	Ich habe mich weiterhin unsicher gefühlt ob es denn auch die "richtigen" Lösungen waren oder ob nicht noch viel fehlte.	6	2
swp	2	12	5	Die Antworten waren nicht immer klar und durch ein paar Schwierigkeiten hat sich das verdeutlicht.	2	2
swp	2	13	5	Ich bin, trotzdem die Aufgabe noch nicht ganz abgeschlossen ist und trotz der ganzen Schwierigkeiten stolz auf meinen Fortschritt und zuversichtlich, was den Erfolg die nächsten Wochen über angeht.	6	4
swp	2	14	5	Schwer zu beantworten, weil wir noch keine richtige Arbeit gemacht haben.	3	3
swp	3	0	0	Es war postiv, wir haben alle Probleme gut gemeistert und intern war alles glatt	4	4
swp	3	0	1	Das ganze Team trifft sich jede Woche online und löst die Aufgaben zusammen.	3	3
swp	3	0	2	Wir (dreiergruppe) haben unsere Aufgabe in drei Teilaufgaben geteilt und jeder hat sich einer angenommen.	3	3
swp	3	0	2	Wenn einer fertig wurde, haben wir zusammen an einer anderen weitergearbeitet.	3	3
swp	3	0	3	Meine Gruppe und ich konnten die Aufgaben gut lösen, auch wenn es mal zwischenzeitig kniffelig wurde	4	4
swp	3	0	4	Ich habe teils alleine gearbeitet und teils mit meinem Team.	3	3
swp	3	0	4	Die Teamarbeit war weniger als in den ersten Wochen, was jedoch kein Problem ist.	3	3
swp	3	0	5	Integration von Modulen in das Biotracker system stellte sich für ein Modul als Herausforderung dar.	2	2
swp	3	0	5	Ausführung von merheren Bibliotheken führte zu konflikten	3	3
swp	3	0	5	woran wir immernoch arbeiten.	3	3
swp	3	0	5	Performance einer Technologie war wesentlich schlechter als erwartet.	1	1
swp	3	0	5	Sodass zwei von zwei Technologien zu Herausforderungen wurden, anstatt eine optimale Lösung herauszukristallisieren.	2	2
swp	3	0	6	Arbeiteten am Code des Papers und lernten, wie man den Code modifiziert und eigene Experimente mit ihrem Aufbau durchführt	3	3
swp	3	0	7	Wir haben uns relativ schnell dafür entschieden unsere Arbeit in gemeinsammer arbeit zu lösen.	3	3
swp	3	0	7	So konnten wir alle entscheidungen schnell treffen und auch Fragen und Probleme schnell lösen.	4	4
swp	3	0	8	In der Woche hab ich meist ein bis zwei Tage für jeweils 2-3h reserviert um die Aufgabe zu bearbeiten und zu lösen.	3	3
swp	3	0	9	Zusammen mit meinen beiden anderen Teammitgleidern haben wir uns an einem Tag an ein frustrierendes Problem gesetzt.	2	2
swp	3	0	9	Leider haben wir zu viel auf einzelne Probleme vernarrt.	2	2
swp	3	0	9	Aber die Diskussionen dabei waren gut.	4	4
swp	3	0	10	Es war hautpsächlich mein Team dabei und wir haben alle von Zuhause aus gearbeitet.	3	3
swp	3	0	10	Wir haben uns online (per Audio) getroffen um den aktuellen Stand, Schwierigkeiten und die nächsten Stritte (organisatorisches) zu besprechen.	3	3
swp	3	0	11	Das Vorgehen in einer Gruppe zeigt mehrere Blickwinkel und lässt einen durch die Ideen von anderen schneller voran kommen.	4	4
swp	3	0	11	Bei gemeinen Fehler kam es, durch mangelnder Expertise, leider noch zum stocken und wir mussten länger an Bugs bei der Code übertragung sitzen als gewollt.	2	2
swp	3	0	12	Ich habe heute zwar ein paar schöne Vorträge gehört, aber auch dabei gelernt, dass wir vielleicht noch etwas besser die Studenten auf Vorträge vorbereiten müssten.	6	2
swp	3	0	12	Mir fehlt oft eine klarere Strukturierung und eine Vortragsweise, die mich wach hält.	2	2
swp	3	0	12	Kann ich deren Lernprozess besser unterstützen?	3	3
swp	3	0	12	Oder müssen die Studis einfach nur oft üben?	3	3
swp	3	1	0	Wir haben yolo, wpod, rectification, ocr, image augmentation gelernt, also eine ganze Menge.	3	3
swp	3	1	0	ich denke, ein wenig Hilfe, vielleicht von Profesor, der sich wöchentlich mit den Teams trifft und uns über einige der Maschinen "belehrt", würde dies einfacher machen	2	2
swp	3	1	1	Ich habe neue Algorithmen gelernt und implementiert.	3	3
swp	3	1	1	Jetzt haben wir vor, die zu verbessern,	3	3
swp	3	1	2	Auf jeden Fall haben wir gelernt uns in der kleinen Gruppe zu organisieren und kommunizieren.	3	3
swp	3	1	2	Das hat alles super funktioniert soweit.	5	5
swp	3	1	3	Mittlerweile besitze ich ein besseres Verständnis über Workflows und Metriken	4	4
swp	3	1	4	Ich habe viel gelernt über das Arbeiten in einer Gruppe.	3	3
swp	3	1	4	Wie man mit GIT Code verwaltet.	3	3
swp	3	1	4	Die Probleme die mit Kommunikation auftreten.	3	3
swp	3	1	4	Ich bin selbstbewusster geworden in Projektarbeit.	4	4
swp	3	1	5	Software zu analysieren.	3	3
swp	3	1	5	Werde ich auch in der Praxis anwenden, Ja bin selbstbewwusster geworden im Umgang mit großen Softwareprojekten.	4	4
swp	3	1	6	Ich habe gelernt, wie man die pytorch lightening library benutzt und das gab mir mehr Sicherheit bei der Manipulation der bestehenden Paper Codebase	4	4
swp	3	1	7	Ich habe sehr viel darüber gelernt erst mal tief über ein Problem nachzudenken und zu versuchen es zu lösen.	3	3
swp	3	1	7	Von der technischen Seite habe ich bis jetzt nicht viel neues gelern aber das wird in den nächsten Wochen noch kommen.	3	3
swp	3	1	8	Ich habe neue Möglichkeiten gesehen wie man bswp. Objekte mittles der OpenCV Libary lokalisiert.	3	3
swp	3	1	9	Wir haben jetzt zum gLück einen Weg, den wir besser sehen können.	4	4
swp	3	1	9	Es ist so ein bisschen Exploration vs Exploitation.	3	3
swp	3	1	9	Exploitation fühlt sich gut an und es fühlt sich nach Fortschritt an, aber nur in der Exploration lernt man wirklich.	4	4
swp	3	1	9	Und wir fangen erst wirklich an aus der Exploration raus zu kommen.	3	3
swp	3	1	9	Ich denke wir hätten mehr Zeit investieren können, aber das sagt man immer	2	2
swp	3	1	10	Ich habe etwas über Datenbeschaffung (dataset finden, labelling) und über das suchen und finden von zur Aufgabe passenden Literatur (paper) gelernt.	3	3
swp	3	1	11	Ich habe gelernt wie ein Machine Learning Model vorgeht und welche Schritte dafür benötigt werden, was man für Trainingsdaten brauch und wie man die Ergebnisse validieren sollen.	3	3
swp	3	1	11	Praxiserfahrung fehlt dazu aber leider noch.	2	2
swp	3	1	11	Dies wird aber in nächster Zeit wahrscheinlich durchgeführt.	3	3
swp	3	1	12	Ich hätte heute etwas besser aufpassen müssen, aber ich habe so wenig geschlafen die letzten Tage, dass ich heute nur 10 min vor dem Meeting nochmal auf die Couch gegangen bin um ein kleines Nickerchen zu machen.	2	2
swp	3	1	12	Das hat mich aber super müde gemacht und ich hatte auch keine Zeit mehr eine Mate zu holen.	2	2
swp	3	1	12	Ja, vielleicht sollte ich das nächste Mal einfach zwei Minuten früher aufstehen und eine Mate holen.	2	2
swp	3	1	12	Das mach ich.	3	3
swp	3	2	0	-	3	3
swp	3	2	0	wir bekommen keine Daten von der Polizei - die Antworten der Polizei sind langsam - die Polizei ist nicht präzise in ihrer Sprache	2	2
swp	3	2	1	Das Fehlen von Daten, was die Motivation verringert hat.	2	2
swp	3	2	2	Schwierig wird die Kommunikation mit externen Interessenvertretern, da diese nicht so flexibel zu erreichen sind und man nur schwer an Informationen kommt.	2	2
swp	3	2	2	Auch geplante Termine wurden nicht eingehalten bzw kurzfristig abgesagt.	2	2
swp	3	2	3	Herausfordernd waren in erster Linie technische Hürden, hin und wieder ein Verständnis Problem der Materie	2	2
swp	3	2	4	Es gab Probleme mit den Daten aber ich bin stolz auf unseren kreativen Umgang damit.	6	4
swp	3	2	4	Wir haben vorerst eine Alternative gefunden.	3	3
swp	3	2	4	Zudem habe ich mich nicht demotivieren lassen.	4	4
swp	3	2	5	Die Integration von Pythoncode in C++ Programm führte zu konflikten deren Bewältigung länger dauerte als die eigentliche Integration.	2	2
swp	3	2	6	Umgebungskonflikte zwischen der Umgebung des Autors und unserer Umgebung verursachten Probleme bei der Ausführung des Codes, wir nahmen an, dass beide Umgebungen gleich sind, aber es stellte sich heraus, dass dies nicht der Fall war	2	2
swp	3	2	7	Wir hatten einmal zwei Variablenvertauscht und ewig nach dem fehler gesucht.	2	2
swp	3	2	7	Obwohl so ein Fehler in meinem Leben schon sehr häufig aufgetauch ist habe ich noch immer keine Lösung dafür gefunden.	2	2
swp	3	2	7	Solche und viele weitere Problem haben dafür gesorgt das wir häufig 4 oder 6 statt geplanter 2 Stunden an einer Teilaufgabe saßen.	2	2
swp	3	2	8	Eine Herausforderung war es die Beispiele aus von diversen Internetseiten so zu verstehen, dass der Code intuitiv wird.	2	2
swp	3	2	9	Wir sind immer wieder gegen Probleme mit der Integrierung gekommen, besonders frustrierend war das Dependency-Integrieren.	1	1
swp	3	2	9	Es hat viel Zeit und Nerven gekostet herauszufinden, in welche Richtung wir NICHT gehen sollen.	2	2
swp	3	2	9	Schade	2	2
swp	3	2	9	.	3	3
swp	3	2	10	Wir haben unsere Aufgabe in Teilaufgaben aufgeteilt.	3	3
swp	3	2	10	Wie die Ergebnisse der beiden Teilaufgaben später zusammenführt werden können, hätten besser abgesprochen werden können.	2	2
swp	3	2	11	Bugs im Programm an mehrere Stellen und komische Ergebnisse waren nicht selten vorhanden diese waren auch gemeinsam nicht leicht auszumerzen und sind zum Teil noch vorhanden	2	2
swp	3	2	11	wir versuchen mit dem Gruppenansprechpartner darüber zu reden, ob er nicht ein paar Tipps für uns hat.	3	3
swp	3	2	12	Ich habe die Verteilung der Vorträge so erwartet.	3	3
swp	3	2	12	Ein paar gute, ein paar weniger gute, und viele mittelmäßige.	6	3
swp	3	2	12	Unerwartet war, dass zwei Gruppen ihre Leute ausgewechselt hatten, aber das ist nicht schlimm.	6	3
swp	3	2	12	Das hätten die Gruppen eigentlich direkter kommunizieren müssen als das ins Google Doc zu schreiben.	2	2
swp	3	3	0	Ich bin zuversichtlicher, am Ende ein funktionierendes Modul zu erhalten	4	4
swp	3	3	1	Das hat sich nicht geändert.	3	3
swp	3	3	2	Es ist einfacher Objekterkennung und Mustererkennung zu nutzen/implementieren als gedacht.	4	4
swp	3	3	2	Es gibt bereits viele vortrainierte Modelle, die man nutzen kann.	3	3
swp	3	3	3	Vorher konnte ich kaum mit mit dem Begriff Überwachtes/	3	3
swp	3	3	3	Unüberwachtes Lernen anfangen.	3	3
swp	3	3	3	Vor allem ist mir die Vielfalt innerhalb des Feldes viel bewusster.	4	4
swp	3	3	4	Ich kann jetzt besser abschätzen wie aufwendig das Thema wirklich ist.	4	4
swp	3	3	4	Gerade im Vergleicht zu den anderen Gruppen.	3	3
swp	3	3	5	Die Integration stellte sich als sehr große Herausforderung dar.	1	1
swp	3	3	5	Die Performance war schlechter als gedacht.	2	2
swp	3	3	6	Ich habe die Arbeiten besser verstanden	4	4
swp	3	3	7	Wie wichtig evaluieren für ein Modell ist war mir am Anfang nicht klar und auch wie komplex die Wahl der richtigen Metriken ist.	3	3
swp	3	3	7	Auf den ersten Blick ist es eine recht einfache Aufgabe, aber man muss so viele Grundlegene Annahmen treffen und dabei aufpassen nicht irgendwas vorrauszusetzten was nicht belegt ist das es die Aufgabe super spannend macht	6	4
swp	3	3	8	Unabhängig davon was damit möglich wäre, denke ich stand jetzt nicht, dass die Aufgabenstellung leichter oder schwerer geworden ist.	3	3
swp	3	3	9	Wir hatten einen Weg, den wir gehen wollten und die Gespräche mit dem Professor haben bestätigt, dass der Weg auch aus seiner Sicht richtig ist, deshalb hat sich die Wahrnehmung nicht sehr stark geändert.	4	4
swp	3	3	10	Ich hatte mir das Teilaufgabe die wir behandeln wesentlich trivialer als es eigentlich ist vorgestellt.	2	2
swp	3	3	11	Wie ein Model arbeitet und was es für die Datensätze brauch, um sie benutzbar zu machen.	3	3
swp	3	3	12	Meine Wahrnehmung hat sich eigentlich gar nicht geändert, aber das Formular gibt mir nur "sehr wenig" zur Auswahl.	3	3
swp	3	3	12	:p	3	3
swp	3	4	0	Ich habe auch außerhalb des maschinellen Lernens viel gelernt, z. B. Git, Zweige, Daten besser präsentieren	3	3
swp	3	4	1	Das hat sich nicht geändert.	3	3
swp	3	4	2	Es hat gezeigt, dass ich ein gute Organisationstalent habe und auch schnell begreife, wie Dinge funktionieren.	4	4
swp	3	4	3	Meine Kompetenzen haben sich in einigen Bereichen etwas verbessert, allerdings nicht all zu gravierend, da jeder im Team an den Bereichen arbeitet, welche ihm/ihr liegen	4	4
swp	3	4	4	Ich denke ich bin im Überblick behalten und vortragen.	3	3
swp	3	4	4	Konzepte auszuarbeiten fällt mir auch leicht.	4	4
swp	3	4	5	Kaum.	3	3
swp	3	4	5	Probleme sind zum lösen dar und das taten wir mit unseren Kompetenzen ohne unsere Kompetenzen in Frage zu stellen.	3	3
swp	3	4	6	es hat sich nicht viel geändert	3	3
swp	3	4	7	Das wir alles bis jetzt so gut zum laufen gebracht haben und alle hindernisse überwinden konnten stellt mich sehr positiv ein.	5	5
swp	3	4	8	Ich habe neue Bibliotheken kennengelernt und wie man sie für diverses nutzen könnte.	3	3
swp	3	4	9	Mir ist klar geworden, dass ich zwar Grundkenntnisse im Bereich Software-Engineering habe, aber ich echt kein Experte bin.	6	3
swp	3	4	9	Zwar ist es okay sich zu spezialisieren, aber das zu merken, dass ich mit anderen Teammitgleidern nicht mithalten kann.	2	2
swp	3	4	10	Dies ist mein erstes größeres ML-Projekt.	3	3
swp	3	4	10	Vor allem die Schritte der Dateset Suche und das suchen/aussortieren der geeigneten Lösung.	3	3
swp	3	4	10	In diesen Punkten habe ich am meisten gelernt.	3	3
swp	3	4	11	Meine Kompetenz ist nicht weit von dem entfernt was ich mir bereits dachte.	3	3
swp	3	4	11	Es zeigt mir ein paar Probleme die ich weiterhin hinsichtlich des Arbeitens mit automatischen Model habe.	3	3
swp	3	4	12	Ich denke ich bin auf dem richtigen Weg mit mehreren Vorträgen die Studis auf die Softskills , die sie lernen sollen, vorzubereiten und ich sehe auch, dass die technische Betreuung durch die Doktoranden gut funktioniert.	4	4
swp	3	4	12	Hier und da gibt es technische Rückmeldungen, die ich aus den Vorträgen habe, die ich eigentlich persönlich zurückmelden und klären müsste.	3	3
swp	3	4	12	Da fehlt aber meist die Zeit.	3	3
swp	3	4	12	Das könnte ich noch verbessern.	6	3
swp	3	5	0	Freude	4	4
swp	3	5	1	Alles geht Im Großen und Ganzen  gut.	4	4
swp	3	5	2	Viele Erfolgserlebnisse und Glücksmomente, da erstaunlich wenig Hürden gehabt.	5	5
swp	3	5	3	Entspannt, zu Beginn eher unsicher doch im laufe der Zeit selbstsicherer	6	2
swp	3	5	4	Ich habe mich während der Arbeit am Projekt motiviert und glücklich gefühlt.	4	4
swp	3	5	4	Die Programmieraufgaben machen Spaß.	4	4
swp	3	5	4	Die Ausarbeitung der Präsentation und Dokumentation ist etwas zäher, aber ich lerne auch dabei.	6	2
swp	3	5	5	Ein bischen Frust, da wir noch keine Lösung gefunden haben.	2	2
swp	3	5	6	Ich fand es wirklich spannend, an diesen Problemen zu arbeiten, und es gab mir Selbstvertrauen, mit akademischen Codebasen zu arbeiten und mehr in den Code von Papieren einzulesen	5	5
swp	3	5	7	Die Aufgabenlösung habe ich sehr positiv empfunden, weil wir eine tolle Gruppendynamik haben.	5	5
swp	3	5	7	Wir kommen auch neben dem fachlichen sehr gut mit einander klar und ergenzen uns in unseren Fähigkeiten sehr gut	5	5
swp	3	5	8	Das Gefühl des "glücklich" seins hatte ich, wenn ich die Aufgabe gelöst habe.	4	4
swp	3	5	9	Zähneknirschend ist wohl das Wort, das mir einfällt.	2	2
swp	3	5	9	Es war ein echter grind sich durch manche Sachen durchzukämpfen, besonders weil es schwer war, etwas helfendes beizutragen.	1	1
swp	3	5	9	Ich glaube ich bringe eher high-level Entscheidungen ins Team rein.	3	3
swp	3	5	10	Wir haben diese Woche unser Ansätze erfolgreich ausprobieren können.	4	4
swp	3	5	10	Deshalb habe ich mich gut gefühlt.	4	4
swp	3	5	11	Meine Emotionen haben sich wie meine Wahrnehmung nicht merklich verändert.	3	3
swp	3	5	11	Weiterhin etwas angespannt und besorgt da die Ergebnisse noch problematisch aussehen.	2	2
swp	3	5	12	Ich war ziemlich müde und durch meinen Hund abgelenkt.	2	2
swp	3	5	12	Ich war bei manchen Vorträgen schon auch positiv überrascht und war gespannt, was es in sechs Wochen dann noch für Ergebnisse geben wird.	4	4
swp	4	0	0	Die Zusammenarbeit an einem relativ kleinen Projekt in einem Modul in dem jeder 300 Stunden investieren soll, hat Komplikationen mit sich gebracht bei der Arbeitsaufteilung.	2	2
swp	4	0	1	Ich fand die Erfahrung ziemlich positiv, mein Team war sehr freundlich, wir hatten keine Probleme mit Aufgabenaufteilung und Time-management	5	5
swp	4	0	2	Das Arbeiten in der Gruppe mit meinen Partnern hat sehr gut geklappt.	5	5
swp	4	0	2	Wir konnten die Aufgaben fair und effizient aufteilen und größtenteils auch die von uns gesetzten Deadlines einhalten.	4	4
swp	4	0	2	Die gruppenübergreifende Arbeit war, wie zu erwarten, etwas langsamer, aber schlussendlich hat das auch ganz gut geklappt.	6	4
swp	4	0	2	Die Kommunikation mit der dritten Partei war deutlich schwieriger und hat mehr Zeit in Anspruch genommen.	2	2
swp	4	0	2	Die Aufgaben konnten wir letzten Endes aber zufriedenstellend lösen und haben ein gutes Ergebnis erzielt.	4	4
swp	4	0	3	Die meiste Zeit haben wir gemeinsam vor den größeren Problemen gesessen und immer wenn eine/r eine Idee hatte wurde diese umgesetzt.	3	3
swp	4	0	3	Nach diesen gemeinsamen Sessions haben wir Aufgaben verteilt und diese dann alleine übernommen.	3	3
swp	4	0	4	Eine Erfahrung hat viel mit Selbstmotivation zu tun.	3	3
swp	4	0	4	Zwei der Teammitglieder haben sich eingesetzt, doch ein anderes Teammitglied war unmotiviert und mit allem verspätet.	6	2
swp	4	0	4	Wir hätten der Person viel früher mitteilen sollen, dass das nicht okay ist.	2	2
swp	4	0	4	So waren die Folgen des Mitteilen größer und die Konsequenzen härter.	2	2
swp	4	0	4	Zur Aufgabenlösung hat das negativ beigetragen, denn am Ende hat unsere Erwartung, die Arbeit von drei Teammitgleidern, nicht der Realität, die Arbeit von zwei Teammitgleidern, entsprochen.	2	2
swp	4	0	5	Wir haben die Entscheidung als Team beschlossen und uns gemeinsam an die Aufgabe rangesetzt, bzw. aufgeteilt.	3	3
swp	4	0	5	Da wir uns wöchentlich trafen, hat sich dies stetig verändert.	3	3
swp	4	0	6	Die Zeit wird zum Ende hin doch immer knapp.	2	2
swp	4	0	6	Ich bin zufrieden mit unserer lauffähigen Software.	4	4
swp	4	1	0	Wir  haben gelernt, dass die Anwendung von Machine Learning jeweils von Domäne zu Domäne sehr viele zu beachtende Faktoren mit sich bringt und dass die letztendliche Implementierung dabei für uns als Informatiker relativ klein ausfallen kann.	3	3
swp	4	1	1	Ich habe auf jeden Fall mehr Erfahrung mit Python und GitHub bekommen, das manuelle Bilder-Labeling hatte ich sogar zum ersten mal gemacht.	3	3
swp	4	1	1	Wenn wir mehr Zeit hätten, könnten wir vielleicht bessere Ergebnisse erzeugen.	6	2
swp	4	1	2	Ich habe auf jeden Fall gelernt in einer Gruppe besser zu arbeiten und Aufgaben mehr zu koordinieren.	4	4
swp	4	1	2	Außerdem ist es mir aufgefallen, dass es wichtig ist, eine Person als Hauptansprechpartner zu wählen, damit die Kommunikation reibungslos funktioniert.	3	3
swp	4	1	2	Für mich hat sich auch herausgestellt, dass eine gute Vorbereitung die halbe Miete ist.	3	3
swp	4	1	2	Damit kann man sich viel Arbeit im Nachhinein ersparen.	3	3
swp	4	1	3	Es sind einige Sachen klar geworden, vor allem das eine klare Struktur und das aufbauen eines guten Datensatzes das wichtigste für unser Projekt war.	3	3
swp	4	1	4	Definitiv bin ich bin darüber bewusst geworden, dass ich früher mehr von Leuten verlangen kann.	3	3
swp	4	1	4	Das werde ich in zuküftige Projekte mitnehmen, als eine Art Test der generellen Leistungsfähigkeit der Mitarbeitenden.	3	3
swp	4	1	5	Bezogen auf das Thema des jeweiligen Projektes habe ich viel neues gelernt dazu gelernt und auch im Bereich Projektmanagement viele neue Kenntnisse sammeln können.	4	4
swp	4	1	5	Ich werde diese neue Erfahrungen definitiv für kommende Projekte mitnehmen.	4	4
swp	4	1	6	Wir haben viel gelernt.	4	4
swp	4	1	6	Ich bin selbstbewusster in der Verwendung mit GIT geworden.	4	4
swp	4	1	6	Man hätte die letzten Arbeiten besser auf die Tage davor aufteilen können.	2	2
swp	4	2	0	Das Projekt war kleiner als zunächst angenommen.	3	3
swp	4	2	0	Ein Großteil der Arbeit lag in der Feature Extraction und dem Datapreprocessing.	3	3
swp	4	2	0	Die Implementierung hatte zwar auch ihre Hürden, allerdings waren diese generischerer Natur als z.B. das Datapreprocessing.	6	2
swp	4	2	1	Das sehr späte Datenempfang war unerwartet und hat einige Probleme gemacht	2	2
swp	4	2	2	Definitiv war die größte Herausforderung die Kommunikation mit der Polizei.	2	2
swp	4	2	2	Es hat gerne mal ein paar Tage gedauert eine Antwort auf Fragen zu erhalten und Test	3	3
swp	4	2	2	Daten haben wir auch erst sehr spät bekommen.	2	2
swp	4	2	2	Intern in unserer Gruppe war die Absprache die größte Herausforderung bzw die Einigung auf verschiedene Modelle oder Vorgehensweisen.	3	3
swp	4	2	2	Allerdings sind wir auch da schnell zu zufrieden stellenden Lösungen gekommen.	4	4
swp	4	2	3	Die Probleme fingen mit der Auswertung an.	2	2
swp	4	2	3	Die Zeit Setzung der Meilensteine war in Ordnung gewählt nur der letzte Meilenstein warf neue Fragen und Ansätze auf welche vorher nicht ein kalkulierbar waren und deshalb das Endergebnis geschmälert haben.	6	3
swp	4	2	4	Abgesehen von der Selbstmotivation im Problemfall eines Teammitgliedes ist mir aufgefallen, dass in kleinen Team die hohe Varianz der täglichen Leistung stärker auffällt.	2	2
swp	4	2	5	Das Lösen von einigen Herausforderung brachte neue Probleme daher, die uns am Anfang nicht ersichtlich und auch nicht einfach zu lösen waren.	2	2
swp	4	2	5	Ebenfalls gab es Aufgaben die komplexer waren als ursprünglich gedacht.	2	2
swp	4	2	6	Es war schwierig zu entscheiden, welche Informationen wir in welches Dokument schreiben (Google Doc, Dokumentation.md, Präsi).	2	2
swp	4	3	0	Mustererkennung in animal behaviour stellte sich durch die Existenz eines guten Tools als sehr greifbar und leicht heraus.	5	5
swp	4	3	0	Bildererkennung war sehr gut eingebettet in ein Tool.	5	5
swp	4	3	1	Die Wahrnehmung hat nicht viel geändert	3	3
swp	4	3	2	Meine Wahrnehmung hat sich dahingehend verändert, als dass die Arbeit mit Behörden noch schwieriger ist als anfangs vermutet.	1	1
swp	4	3	2	Außerdem ist eine gute Vorarbeit und strukturiertes Arbeiten das wichtigste um ein Gelingen zu sichern.	3	3
swp	4	3	3	Die Art und Weise wie Machine Learning Model an die Themen herangeht um sie zu bewältigen und welche Faktoren dafür beachtet werden müssen hat sich bei mir verändert.	3	3
swp	4	3	3	Vor allem wie viele kleine Schritte zu beachten sind auf welcher Ebene beim Trainieren abläuft.	3	3
swp	4	3	4	Bei mir hat sich die Überzeugung gefestigt, dass deep learning ein sehr gutes Werkzeug dafür ist, gute Ergebnisse im Bereich computer vision zu liefern.	5	5
swp	4	3	4	Das Wissen über die genaue Anwendungsparameter von DL ist nicht so gefestigt, wie ich erwartet hätte.	2	2
swp	4	3	5	Da das lösen von einigen Aufgaben neue Probleme mit daherbrachte, habe ich bemerkt wie Komplex doch die ganze Thematik ist.	2	2
swp	4	3	6	Es ist doch gar nicht so leicht zu lösen.	2	2
swp	4	3	6	Für viele Zwischenaufgaben benötigt man mehr Zeit als ganz am Anfang gedacht.	3	3
swp	4	4	0	Die Aufgabe war für uns Masterstudenten sehr greifbar und relativ leicht zu bewältigen.	4	4
swp	4	4	1	Wahrscheinlich hat die Wahrnehmung im besseren Weg geändert, ich konnte mehr machen, als erwartet	4	4
swp	4	4	2	Fast gar nicht.	3	3
swp	4	4	2	Es haben sich meine Vermutungen eher gefestigt.	6	4
swp	4	4	2	Gelernt habe ich aber, dass ich doch etwas bessere Führungsqualitäten besitze als gedacht.	4	4
swp	4	4	3	Meine Wahrnehmung hat sich nicht stark verändert, nur ein wenig verschoben.	3	3
swp	4	4	3	Das grobe schnell zu begreifen und damit gut umzugehen habe ich davor schon erwartet, nur die feinen Details bereiteten mir relativ große Schwierigkeiten was mir vorher nicht voll bewusst war.	6	2
swp	4	4	4	Ich habe vorher gedacht, ich hätte ein besseres Menschenverständnis.	2	2
swp	4	4	4	Ein bisschen wurde dies von der vorher angesprochenen Problematik im Team durchgerüttelt.	2	2
swp	4	4	4	Andererseits hat er möglicherweise nicht daran gehapert, dass ich die Problematik nicht gesehen habe, sondern dass ich mich damit nicht auseinander setzen wollte.	2	2
swp	4	4	4	Hier würde ich mich verbessern vollen.	6	3
swp	4	4	5	Da ich mit mir vielen neuen Bibliotheken hantieren musste, konnte ich meine Kompetenz dahergehend verbessern.	4	4
swp	4	4	6	Die Wahrnehmung gegenüber meinen Kompetenzen ist ähnlich geblieben.	3	3
swp	4	4	6	Ich bin gut im kommunizieren	4	4
swp	4	5	0	Es gab teilweise wenig zu tun.	3	3
swp	4	5	0	Auf die Daten zu warten hat lang gedauert und diese zu Verarbeiten war mehr fleißarbeit als Problemlösung.	2	2
swp	4	5	1	Befriedigend, das hat Spaß gemacht	4	4
swp	4	5	2	Ich habe mich erst sehr gut gefühlt, da vieles sich als einfacher herausgestellt hat als gedacht.	5	5
swp	4	5	2	Zum Schluss hat sich etwas Nervosität und Hektik breit gemacht als es dann der Deadline (finale Präsentation) entgegen ging.	2	2
swp	4	5	2	Alles in allem bin ich aber sehr zufrieden und glücklich.	5	5
swp	4	5	3	Teilweise zufrieden, sauer bei Fehlschlägen oder komischen Ergebnissen und erleichtert bei kleinen Erfolgen.	6	3
swp	4	5	4	Ich habe mich selten gestresst gefühlt, während ich eine Aufgabe erledigt habe, was eine Überraschung war.	4	4
swp	4	5	4	Wenn ich mich an etwas gesetzt habe, dann kam ich relativ schnell in einen angenehmen flow rein und konnte den bis zur Beendigung der Zielsetzung und manchmal sogar drüber hinaus behalten.	4	4
swp	4	5	4	Besonders letzeres hat dabei geholfen, weitere Ziele zu erfüllen, die nicht gesetzt waren aber geholfen haben.	4	4
swp	4	5	5	Ich war froh die Aufgabe gelöst zu haben.	4	4
swp	4	5	6	Währenddessen hat es Spaß gemacht im Team zu arbeiten auch wenn es viel war.	4	4
swp	4	5	6	Danach war ich erleichtert.	4	4
swp	4	0	0	Hauptsächlich war ich alleine, man hat sich eher zur Besprechung von Problemen und weitere Vorgehensweise getroffen.	3	3
swp	4	0	0	Ich war m.E. so etwas wie der Team-Lead, wobei ich gen Ende auch mehr ins Schreiben des Codes involviert war.	3	3
swp	4	0	0	Arbeit war zu 100% von zu Hause.	3	3
swp	4	0	1	Lernen, wie man die Methodik einer Arbeit versteht und in Code umsetzt	3	3
swp	4	0	2	Ich hab viel mit meinen Teamkollegen in Meetings verbracht um gemeinsam den Code zu optimieren und an der Dokumentation und der finalen Präsentation zu arbeiten.	3	3
swp	4	1	0	Ich habe ein wenig mehr über Python gelernt und einiges über ML, was sehr interessant ist.	4	4
swp	4	1	0	Generell nehme ich vermutlich leider nicht sehr viel für meine Zukunft mit, aber wer weiß.	2	2
swp	4	1	0	Ich hätte mich anfangs besser in das Thema ML einarbeiten können.	2	2
swp	4	1	1	gelernt, wie man verschiedene Bibliotheken benutzt, die Methodik des Papiers gelesen und in Code umgesetzt hat.	3	3
swp	4	1	1	das ist	3	3
swp	4	1	1	in der Praxis sehr gut anwendbar	5	5
swp	4	1	2	Ich habe viel gelernt darüber wie man in einem Team ein Softwareprojekt angeht.	3	3
swp	4	1	2	Ich bin sehr stolz auf das Ergebnis und da ich viel gelernt habe, denke ich nicht das ich etwas anders gemacht hätte.	5	5
swp	4	2	0	Einiges hat länger gedauert als erwartet, mehr ist schief gelaufen als gehofft.	2	2
swp	4	2	0	Auch die Kommunikation war nicht immer leicht.	2	2
swp	4	2	0	Stellenweise war auch die Arbeitsmoral etwas niedrig...	2	2
swp	4	2	1	Unser Zeitplan	3	3
swp	4	2	1	richtig war und wenig bis keine Schwierigkeiten auftraten, war das Problem selbst eine Herausforderung, aber wir haben es gelöst.	6	2
swp	4	2	2	Die größten Schwierigkeiten hatten mit der Kommunikation mit der Polizei zu tun.	2	2
swp	4	2	2	Alles war immer ein großer bürokratischer Akt.	2	2
swp	4	3	0	Ich habe mehr Insight über das Thema ML bekommen, was mich etwas neue Perspektiven sehen lässt.	3	3
swp	4	3	1	Ich fand es einfach interessanter, als ich es besser verstanden habe.	4	4
swp	4	3	2	Das einzige was sich in meiner Wahrnehmung geändert hat ist, dass die Bürokratie bei der Polizei noch viel schlimmer ist als ich gedacht hätte.	1	1
swp	4	4	0	Kaum.	3	3
swp	4	4	1	Ich bin jetzt zuversichtlicher, was das Lesen und Reproduzieren von Papiercode angeht.	4	4
swp	4	4	2	Ich glaube da bin ich eigentlich gut im Bilde.	4	4
swp	4	5	0	Häufig frustriert und genervt.	1	1
swp	4	5	0	Aber auch ab und zu stolz oder Spaß beim coden.	4	4
swp	4	5	1	Ich bin mit den Ergebnissen zufrieden und habe mehr Vertrauen in meine Fähigkeiten.	4	4
swp	4	5	2	Nur Stress weil es so lange gedauert hat Daten zu bekommen.	2	2